solid 
 facet normal -9.955131e-01 -9.462427e-02  0.000000e+00
   outer loop
     vertex -4.997257e-02 -2.885711e-04  0.000000e+00
     vertex -5.000000e-02  0.000000e+00  3.000000e-01
     vertex -5.000000e-02  0.000000e+00  0.000000e+00
   endloop
 endfacet
 facet normal -9.955131e-01 -9.462427e-02  0.000000e+00
   outer loop
     vertex -4.997257e-02 -2.885711e-04  0.000000e+00
     vertex -4.997257e-02 -2.885711e-04  3.000000e-01
     vertex -5.000000e-02  0.000000e+00  3.000000e-01
   endloop
 endfacet
 facet normal -9.643842e-01 -2.645053e-01  0.000000e+00
   outer loop
     vertex -4.989720e-02 -5.633609e-04  0.000000e+00
     vertex -4.989720e-02 -5.633609e-04  3.000000e-01
     vertex -4.997257e-02 -2.885711e-04  3.000000e-01
   endloop
 endfacet
 facet normal -9.643842e-01 -2.645053e-01  0.000000e+00
   outer loop
     vertex -4.989720e-02 -5.633609e-04  0.000000e+00
     vertex -4.997257e-02 -2.885711e-04  3.000000e-01
     vertex -4.997257e-02 -2.885711e-04  0.000000e+00
   endloop
 endfacet
 facet normal -9.044126e-01 -4.266589e-01  0.000000e+00
   outer loop
     vertex -4.975883e-02 -8.566873e-04  0.000000e+00
     vertex -4.975883e-02 -8.566873e-04  3.000000e-01
     vertex -4.989720e-02 -5.633609e-04  3.000000e-01
   endloop
 endfacet
 facet normal -9.044126e-01 -4.266589e-01  0.000000e+00
   outer loop
     vertex -4.975883e-02 -8.566873e-04  0.000000e+00
     vertex -4.989720e-02 -5.633609e-04  3.000000e-01
     vertex -4.989720e-02 -5.633609e-04  0.000000e+00
   endloop
 endfacet
 facet normal -8.252360e-01 -5.647881e-01  0.000000e+00
   outer loop
     vertex -4.955593e-02 -1.153151e-03  0.000000e+00
     vertex -4.955593e-02 -1.153151e-03  3.000000e-01
     vertex -4.975883e-02 -8.566873e-04  3.000000e-01
   endloop
 endfacet
 facet normal -8.252360e-01 -5.647881e-01  0.000000e+00
   outer loop
     vertex -4.955593e-02 -1.153151e-03  0.000000e+00
     vertex -4.975883e-02 -8.566873e-04  3.000000e-01
     vertex -4.975883e-02 -8.566873e-04  0.000000e+00
   endloop
 endfacet
 facet normal -7.398228e-01 -6.728018e-01  0.000000e+00
   outer loop
     vertex -4.928152e-02 -1.454893e-03  0.000000e+00
     vertex -4.928152e-02 -1.454893e-03  3.000000e-01
     vertex -4.955593e-02 -1.153151e-03  3.000000e-01
   endloop
 endfacet
 facet normal -7.398228e-01 -6.728018e-01  0.000000e+00
   outer loop
     vertex -4.928152e-02 -1.454893e-03  0.000000e+00
     vertex -4.955593e-02 -1.153151e-03  3.000000e-01
     vertex -4.955593e-02 -1.153151e-03  0.000000e+00
   endloop
 endfacet
 facet normal -6.540964e-01 -7.564112e-01  0.000000e+00
   outer loop
     vertex -4.892874e-02 -1.759954e-03  0.000000e+00
     vertex -4.892874e-02 -1.759954e-03  3.000000e-01
     vertex -4.928152e-02 -1.454893e-03  3.000000e-01
   endloop
 endfacet
 facet normal -6.540964e-01 -7.564112e-01  0.000000e+00
   outer loop
     vertex -4.892874e-02 -1.759954e-03  0.000000e+00
     vertex -4.928152e-02 -1.454893e-03  3.000000e-01
     vertex -4.928152e-02 -1.454893e-03  0.000000e+00
   endloop
 endfacet
 facet normal -5.745037e-01 -8.185020e-01  0.000000e+00
   outer loop
     vertex -4.847856e-02 -2.075934e-03  0.000000e+00
     vertex -4.847856e-02 -2.075934e-03  3.000000e-01
     vertex -4.892874e-02 -1.759954e-03  3.000000e-01
   endloop
 endfacet
 facet normal -5.745037e-01 -8.185020e-01  0.000000e+00
   outer loop
     vertex -4.847856e-02 -2.075934e-03  0.000000e+00
     vertex -4.892874e-02 -1.759954e-03  3.000000e-01
     vertex -4.892874e-02 -1.759954e-03  0.000000e+00
   endloop
 endfacet
 facet normal -5.035174e-01 -8.639851e-01  0.000000e+00
   outer loop
     vertex -4.791046e-02 -2.407017e-03  0.000000e+00
     vertex -4.791046e-02 -2.407017e-03  3.000000e-01
     vertex -4.847856e-02 -2.075934e-03  3.000000e-01
   endloop
 endfacet
 facet normal -5.035174e-01 -8.639851e-01  0.000000e+00
   outer loop
     vertex -4.791046e-02 -2.407017e-03  0.000000e+00
     vertex -4.847856e-02 -2.075934e-03  3.000000e-01
     vertex -4.847856e-02 -2.075934e-03  0.000000e+00
   endloop
 endfacet
 facet normal -4.441584e-01 -8.959483e-01  0.000000e+00
   outer loop
     vertex -4.733887e-02 -2.690375e-03  0.000000e+00
     vertex -4.733887e-02 -2.690375e-03  3.000000e-01
     vertex -4.791046e-02 -2.407017e-03  3.000000e-01
   endloop
 endfacet
 facet normal -4.441584e-01 -8.959483e-01  0.000000e+00
   outer loop
     vertex -4.733887e-02 -2.690375e-03  0.000000e+00
     vertex -4.791046e-02 -2.407017e-03  3.000000e-01
     vertex -4.791046e-02 -2.407017e-03  0.000000e+00
   endloop
 endfacet
 facet normal -3.894009e-01 -9.210684e-01  0.000000e+00
   outer loop
     vertex -4.655436e-02 -3.022045e-03  0.000000e+00
     vertex -4.655436e-02 -3.022045e-03  3.000000e-01
     vertex -4.733887e-02 -2.690375e-03  3.000000e-01
   endloop
 endfacet
 facet normal -3.894009e-01 -9.210684e-01  0.000000e+00
   outer loop
     vertex -4.655436e-02 -3.022045e-03  0.000000e+00
     vertex -4.733887e-02 -2.690375e-03  3.000000e-01
     vertex -4.733887e-02 -2.690375e-03  0.000000e+00
   endloop
 endfacet
 facet normal -3.378921e-01 -9.411848e-01  0.000000e+00
   outer loop
     vertex -4.560872e-02 -3.361534e-03  0.000000e+00
     vertex -4.560872e-02 -3.361534e-03  3.000000e-01
     vertex -4.655436e-02 -3.022045e-03  3.000000e-01
   endloop
 endfacet
 facet normal -3.378921e-01 -9.411848e-01  0.000000e+00
   outer loop
     vertex -4.560872e-02 -3.361534e-03  0.000000e+00
     vertex -4.655436e-02 -3.022045e-03  3.000000e-01
     vertex -4.655436e-02 -3.022045e-03  0.000000e+00
   endloop
 endfacet
 facet normal -2.925232e-01 -9.562584e-01  0.000000e+00
   outer loop
     vertex -4.448495e-02 -3.705302e-03  0.000000e+00
     vertex -4.448495e-02 -3.705302e-03  3.000000e-01
     vertex -4.560872e-02 -3.361534e-03  3.000000e-01
   endloop
 endfacet
 facet normal -2.925232e-01 -9.562584e-01  0.000000e+00
   outer loop
     vertex -4.448495e-02 -3.705302e-03  0.000000e+00
     vertex -4.560872e-02 -3.361534e-03  3.000000e-01
     vertex -4.560872e-02 -3.361534e-03  0.000000e+00
   endloop
 endfacet
 facet normal -2.513547e-01 -9.678950e-01  0.000000e+00
   outer loop
     vertex -4.320646e-02 -4.037315e-03  0.000000e+00
     vertex -4.320646e-02 -4.037315e-03  3.000000e-01
     vertex -4.448495e-02 -3.705302e-03  3.000000e-01
   endloop
 endfacet
 facet normal -2.513547e-01 -9.678950e-01  0.000000e+00
   outer loop
     vertex -4.320646e-02 -4.037315e-03  0.000000e+00
     vertex -4.448495e-02 -3.705302e-03  3.000000e-01
     vertex -4.448495e-02 -3.705302e-03  0.000000e+00
   endloop
 endfacet
 facet normal -2.151688e-01 -9.765769e-01  0.000000e+00
   outer loop
     vertex -4.172167e-02 -4.364458e-03  0.000000e+00
     vertex -4.172167e-02 -4.364458e-03  3.000000e-01
     vertex -4.320646e-02 -4.037315e-03  3.000000e-01
   endloop
 endfacet
 facet normal -2.151688e-01 -9.765769e-01  0.000000e+00
   outer loop
     vertex -4.172167e-02 -4.364458e-03  0.000000e+00
     vertex -4.320646e-02 -4.037315e-03  3.000000e-01
     vertex -4.320646e-02 -4.037315e-03  0.000000e+00
   endloop
 endfacet
 facet normal -1.822833e-01 -9.832461e-01  0.000000e+00
   outer loop
     vertex -4.005363e-02 -4.673694e-03  0.000000e+00
     vertex -4.005363e-02 -4.673694e-03  3.000000e-01
     vertex -4.172167e-02 -4.364458e-03  3.000000e-01
   endloop
 endfacet
 facet normal -1.822833e-01 -9.832461e-01  0.000000e+00
   outer loop
     vertex -4.005363e-02 -4.673694e-03  0.000000e+00
     vertex -4.172167e-02 -4.364458e-03  3.000000e-01
     vertex -4.172167e-02 -4.364458e-03  0.000000e+00
   endloop
 endfacet
 facet normal -1.526417e-01 -9.882816e-01  0.000000e+00
   outer loop
     vertex -3.817554e-02 -4.963769e-03  0.000000e+00
     vertex -3.817554e-02 -4.963769e-03  3.000000e-01
     vertex -4.005363e-02 -4.673694e-03  3.000000e-01
   endloop
 endfacet
 facet normal -1.526417e-01 -9.882816e-01  0.000000e+00
   outer loop
     vertex -3.817554e-02 -4.963769e-03  0.000000e+00
     vertex -4.005363e-02 -4.673694e-03  3.000000e-01
     vertex -4.005363e-02 -4.673694e-03  0.000000e+00
   endloop
 endfacet
 facet normal -1.256019e-01 -9.920807e-01  0.000000e+00
   outer loop
     vertex -3.609190e-02 -5.227567e-03  0.000000e+00
     vertex -3.609190e-02 -5.227567e-03  3.000000e-01
     vertex -3.817554e-02 -4.963769e-03  3.000000e-01
   endloop
 endfacet
 facet normal -1.256019e-01 -9.920807e-01  0.000000e+00
   outer loop
     vertex -3.609190e-02 -5.227567e-03  0.000000e+00
     vertex -3.817554e-02 -4.963769e-03  3.000000e-01
     vertex -3.817554e-02 -4.963769e-03  0.000000e+00
   endloop
 endfacet
 facet normal -1.008470e-01 -9.949019e-01  0.000000e+00
   outer loop
     vertex -3.379303e-02 -5.460589e-03  0.000000e+00
     vertex -3.379303e-02 -5.460589e-03  3.000000e-01
     vertex -3.609190e-02 -5.227567e-03  3.000000e-01
   endloop
 endfacet
 facet normal -1.008470e-01 -9.949019e-01  0.000000e+00
   outer loop
     vertex -3.379303e-02 -5.460589e-03  0.000000e+00
     vertex -3.609190e-02 -5.227567e-03  3.000000e-01
     vertex -3.609190e-02 -5.227567e-03  0.000000e+00
   endloop
 endfacet
 facet normal -7.897483e-02 -9.968766e-01  0.000000e+00
   outer loop
     vertex -3.148959e-02 -5.643073e-03  0.000000e+00
     vertex -3.148959e-02 -5.643073e-03  3.000000e-01
     vertex -3.379303e-02 -5.460589e-03  3.000000e-01
   endloop
 endfacet
 facet normal -7.897483e-02 -9.968766e-01  0.000000e+00
   outer loop
     vertex -3.148959e-02 -5.643073e-03  0.000000e+00
     vertex -3.379303e-02 -5.460589e-03  3.000000e-01
     vertex -3.379303e-02 -5.460589e-03  0.000000e+00
   endloop
 endfacet
 facet normal -6.022571e-02 -9.981848e-01  0.000000e+00
   outer loop
     vertex -2.918313e-02 -5.782234e-03  0.000000e+00
     vertex -2.918313e-02 -5.782234e-03  3.000000e-01
     vertex -3.148959e-02 -5.643073e-03  3.000000e-01
   endloop
 endfacet
 facet normal -6.022571e-02 -9.981848e-01  0.000000e+00
   outer loop
     vertex -2.918313e-02 -5.782234e-03  0.000000e+00
     vertex -3.148959e-02 -5.643073e-03  3.000000e-01
     vertex -3.148959e-02 -5.643073e-03  0.000000e+00
   endloop
 endfacet
 facet normal -4.387886e-02 -9.990369e-01  0.000000e+00
   outer loop
     vertex -2.687470e-02 -5.883623e-03  0.000000e+00
     vertex -2.687470e-02 -5.883623e-03  3.000000e-01
     vertex -2.918313e-02 -5.782234e-03  3.000000e-01
   endloop
 endfacet
 facet normal -4.387886e-02 -9.990369e-01  0.000000e+00
   outer loop
     vertex -2.687470e-02 -5.883623e-03  0.000000e+00
     vertex -2.918313e-02 -5.782234e-03  3.000000e-01
     vertex -2.918313e-02 -5.782234e-03  0.000000e+00
   endloop
 endfacet
 facet normal -2.726361e-02 -9.996283e-01  0.000000e+00
   outer loop
     vertex -2.379498e-02 -5.967618e-03  0.000000e+00
     vertex -2.379498e-02 -5.967618e-03  3.000000e-01
     vertex -2.687470e-02 -5.883623e-03  3.000000e-01
   endloop
 endfacet
 facet normal -2.726361e-02 -9.996283e-01  0.000000e+00
   outer loop
     vertex -2.379498e-02 -5.967618e-03  0.000000e+00
     vertex -2.687470e-02 -5.883623e-03  3.000000e-01
     vertex -2.687470e-02 -5.883623e-03  0.000000e+00
   endloop
 endfacet
 facet normal -1.070888e-02 -9.999427e-01  0.000000e+00
   outer loop
     vertex -2.071430e-02 -6.000611e-03  0.000000e+00
     vertex -2.071430e-02 -6.000611e-03  3.000000e-01
     vertex -2.379498e-02 -5.967618e-03  3.000000e-01
   endloop
 endfacet
 facet normal -1.070888e-02 -9.999427e-01  0.000000e+00
   outer loop
     vertex -2.071430e-02 -6.000611e-03  0.000000e+00
     vertex -2.379498e-02 -5.967618e-03  3.000000e-01
     vertex -2.379498e-02 -5.967618e-03  0.000000e+00
   endloop
 endfacet
 facet normal  3.661420e-03 -9.999933e-01  0.000000e+00
   outer loop
     vertex -1.763345e-02 -5.989330e-03  0.000000e+00
     vertex -1.763345e-02 -5.989330e-03  3.000000e-01
     vertex -2.071430e-02 -6.000611e-03  3.000000e-01
   endloop
 endfacet
 facet normal  3.661420e-03 -9.999933e-01  0.000000e+00
   outer loop
     vertex -1.763345e-02 -5.989330e-03  0.000000e+00
     vertex -2.071430e-02 -6.000611e-03  3.000000e-01
     vertex -2.071430e-02 -6.000611e-03  0.000000e+00
   endloop
 endfacet
 facet normal  1.632161e-02 -9.998668e-01  0.000000e+00
   outer loop
     vertex -1.455300e-02 -5.939046e-03  0.000000e+00
     vertex -1.455300e-02 -5.939046e-03  3.000000e-01
     vertex -1.763345e-02 -5.989330e-03  3.000000e-01
   endloop
 endfacet
 facet normal  1.632161e-02 -9.998668e-01  0.000000e+00
   outer loop
     vertex -1.455300e-02 -5.939046e-03  0.000000e+00
     vertex -1.763345e-02 -5.989330e-03  3.000000e-01
     vertex -1.763345e-02 -5.989330e-03  0.000000e+00
   endloop
 endfacet
 facet normal  2.739231e-02 -9.996248e-01  0.000000e+00
   outer loop
     vertex -1.147328e-02 -5.854654e-03  0.000000e+00
     vertex -1.147328e-02 -5.854654e-03  3.000000e-01
     vertex -1.455300e-02 -5.939046e-03  3.000000e-01
   endloop
 endfacet
 facet normal  2.739231e-02 -9.996248e-01  0.000000e+00
   outer loop
     vertex -1.147328e-02 -5.854654e-03  0.000000e+00
     vertex -1.455300e-02 -5.939046e-03  3.000000e-01
     vertex -1.455300e-02 -5.939046e-03  0.000000e+00
   endloop
 endfacet
 facet normal  3.874931e-02 -9.992490e-01  0.000000e+00
   outer loop
     vertex -7.368533e-03 -5.695478e-03  0.000000e+00
     vertex -7.368533e-03 -5.695478e-03  3.000000e-01
     vertex -1.147328e-02 -5.854654e-03  3.000000e-01
   endloop
 endfacet
 facet normal  3.874931e-02 -9.992490e-01  0.000000e+00
   outer loop
     vertex -7.368533e-03 -5.695478e-03  0.000000e+00
     vertex -1.147328e-02 -5.854654e-03  3.000000e-01
     vertex -1.147328e-02 -5.854654e-03  0.000000e+00
   endloop
 endfacet
 facet normal  5.088100e-02 -9.987047e-01  0.000000e+00
   outer loop
     vertex -3.676344e-03 -5.507372e-03  0.000000e+00
     vertex -3.676344e-03 -5.507372e-03  3.000000e-01
     vertex -7.368533e-03 -5.695478e-03  3.000000e-01
   endloop
 endfacet
 facet normal  5.088100e-02 -9.987047e-01  0.000000e+00
   outer loop
     vertex -3.676344e-03 -5.507372e-03  0.000000e+00
     vertex -7.368533e-03 -5.695478e-03  3.000000e-01
     vertex -7.368533e-03 -5.695478e-03  0.000000e+00
   endloop
 endfacet
 facet normal  5.411527e-02 -9.985347e-01  0.000000e+00
   outer loop
     vertex  1.153186e-03 -5.245637e-03  0.000000e+00
     vertex  1.153186e-03 -5.245637e-03  3.000000e-01
     vertex -3.676344e-03 -5.507372e-03  3.000000e-01
   endloop
 endfacet
 facet normal  5.411527e-02 -9.985347e-01  0.000000e+00
   outer loop
     vertex  1.153186e-03 -5.245637e-03  0.000000e+00
     vertex -3.676344e-03 -5.507372e-03  3.000000e-01
     vertex -3.676344e-03 -5.507372e-03  0.000000e+00
   endloop
 endfacet
 facet normal  7.337853e-02 -9.973042e-01  0.000000e+00
   outer loop
     vertex  3.636326e-03 -5.062936e-03  0.000000e+00
     vertex  3.636326e-03 -5.062936e-03  3.000000e-01
     vertex  1.153186e-03 -5.245637e-03  3.000000e-01
   endloop
 endfacet
 facet normal  7.337853e-02 -9.973042e-01  0.000000e+00
   outer loop
     vertex  3.636326e-03 -5.062936e-03  0.000000e+00
     vertex  1.153186e-03 -5.245637e-03  3.000000e-01
     vertex  1.153186e-03 -5.245637e-03  0.000000e+00
   endloop
 endfacet
 facet normal  7.853162e-02 -9.969116e-01  0.000000e+00
   outer loop
     vertex  6.822641e-03 -4.811934e-03  0.000000e+00
     vertex  6.822641e-03 -4.811934e-03  3.000000e-01
     vertex  3.636326e-03 -5.062936e-03  3.000000e-01
   endloop
 endfacet
 facet normal  7.853162e-02 -9.969116e-01  0.000000e+00
   outer loop
     vertex  6.822641e-03 -4.811934e-03  0.000000e+00
     vertex  3.636326e-03 -5.062936e-03  3.000000e-01
     vertex  3.636326e-03 -5.062936e-03  0.000000e+00
   endloop
 endfacet
 facet normal  7.753159e-02 -9.969899e-01  0.000000e+00
   outer loop
     vertex  1.000911e-02 -4.564136e-03  0.000000e+00
     vertex  1.000911e-02 -4.564136e-03  3.000000e-01
     vertex  6.822641e-03 -4.811934e-03  3.000000e-01
   endloop
 endfacet
 facet normal  7.753159e-02 -9.969899e-01  0.000000e+00
   outer loop
     vertex  1.000911e-02 -4.564136e-03  0.000000e+00
     vertex  6.822641e-03 -4.811934e-03  3.000000e-01
     vertex  6.822641e-03 -4.811934e-03  0.000000e+00
   endloop
 endfacet
 facet normal  8.616791e-02 -9.962806e-01  0.000000e+00
   outer loop
     vertex  1.509031e-02 -4.124665e-03  0.000000e+00
     vertex  1.509031e-02 -4.124665e-03  3.000000e-01
     vertex  1.000911e-02 -4.564136e-03  3.000000e-01
   endloop
 endfacet
 facet normal  8.616791e-02 -9.962806e-01  0.000000e+00
   outer loop
     vertex  1.509031e-02 -4.124665e-03  0.000000e+00
     vertex  1.000911e-02 -4.564136e-03  3.000000e-01
     vertex  1.000911e-02 -4.564136e-03  0.000000e+00
   endloop
 endfacet
 facet normal  9.338208e-02 -9.956303e-01  0.000000e+00
   outer loop
     vertex  1.991248e-02 -3.672384e-03  0.000000e+00
     vertex  1.991248e-02 -3.672384e-03  3.000000e-01
     vertex  1.509031e-02 -4.124665e-03  3.000000e-01
   endloop
 endfacet
 facet normal  9.338208e-02 -9.956303e-01  0.000000e+00
   outer loop
     vertex  1.991248e-02 -3.672384e-03  0.000000e+00
     vertex  1.509031e-02 -4.124665e-03  3.000000e-01
     vertex  1.509031e-02 -4.124665e-03  0.000000e+00
   endloop
 endfacet
 facet normal  1.005271e-01 -9.949343e-01  0.000000e+00
   outer loop
     vertex  2.556568e-02 -3.101191e-03  0.000000e+00
     vertex  2.556568e-02 -3.101191e-03  3.000000e-01
     vertex  1.991248e-02 -3.672384e-03  3.000000e-01
   endloop
 endfacet
 facet normal  1.005271e-01 -9.949343e-01  0.000000e+00
   outer loop
     vertex  2.556568e-02 -3.101191e-03  0.000000e+00
     vertex  1.991248e-02 -3.672384e-03  3.000000e-01
     vertex  1.991248e-02 -3.672384e-03  0.000000e+00
   endloop
 endfacet
 facet normal  1.079847e-01 -9.941526e-01  0.000000e+00
   outer loop
     vertex  3.121445e-02 -2.487623e-03  0.000000e+00
     vertex  3.121445e-02 -2.487623e-03  3.000000e-01
     vertex  2.556568e-02 -3.101191e-03  3.000000e-01
   endloop
 endfacet
 facet normal  1.079847e-01 -9.941526e-01  0.000000e+00
   outer loop
     vertex  3.121445e-02 -2.487623e-03  0.000000e+00
     vertex  2.556568e-02 -3.101191e-03  3.000000e-01
     vertex  2.556568e-02 -3.101191e-03  0.000000e+00
   endloop
 endfacet
 facet normal  1.153842e-01 -9.933209e-01  0.000000e+00
   outer loop
     vertex  3.685853e-02 -1.832006e-03  0.000000e+00
     vertex  3.685853e-02 -1.832006e-03  3.000000e-01
     vertex  3.121445e-02 -2.487623e-03  3.000000e-01
   endloop
 endfacet
 facet normal  1.153842e-01 -9.933209e-01  0.000000e+00
   outer loop
     vertex  3.685853e-02 -1.832006e-03  0.000000e+00
     vertex  3.121445e-02 -2.487623e-03  3.000000e-01
     vertex  3.121445e-02 -2.487623e-03  0.000000e+00
   endloop
 endfacet
 facet normal  1.233408e-01 -9.923644e-01  0.000000e+00
   outer loop
     vertex  4.249682e-02 -1.131223e-03  0.000000e+00
     vertex  4.249682e-02 -1.131223e-03  3.000000e-01
     vertex  3.685853e-02 -1.832006e-03  3.000000e-01
   endloop
 endfacet
 facet normal  1.233408e-01 -9.923644e-01  0.000000e+00
   outer loop
     vertex  4.249682e-02 -1.131223e-03  0.000000e+00
     vertex  3.685853e-02 -1.832006e-03  3.000000e-01
     vertex  3.685853e-02 -1.832006e-03  0.000000e+00
   endloop
 endfacet
 facet normal  1.271793e-01 -9.918797e-01  0.000000e+00
   outer loop
     vertex  4.455791e-02 -8.669497e-04  0.000000e+00
     vertex  4.455791e-02 -8.669497e-04  3.000000e-01
     vertex  4.249682e-02 -1.131223e-03  3.000000e-01
   endloop
 endfacet
 facet normal  1.271793e-01 -9.918797e-01  0.000000e+00
   outer loop
     vertex  4.455791e-02 -8.669497e-04  0.000000e+00
     vertex  4.249682e-02 -1.131223e-03  3.000000e-01
     vertex  4.249682e-02 -1.131223e-03  0.000000e+00
   endloop
 endfacet
 facet normal  1.341438e-01 -9.909619e-01  0.000000e+00
   outer loop
     vertex  4.756593e-02 -4.597629e-04  0.000000e+00
     vertex  4.756593e-02 -4.597629e-04  3.000000e-01
     vertex  4.455791e-02 -8.669497e-04  3.000000e-01
   endloop
 endfacet
 facet normal  1.341438e-01 -9.909619e-01  0.000000e+00
   outer loop
     vertex  4.756593e-02 -4.597629e-04  0.000000e+00
     vertex  4.455791e-02 -8.669497e-04  3.000000e-01
     vertex  4.455791e-02 -8.669497e-04  0.000000e+00
   endloop
 endfacet
 facet normal  1.339315e-01 -9.909906e-01  0.000000e+00
   outer loop
     vertex  4.832668e-02 -3.569481e-04  0.000000e+00
     vertex  4.832668e-02 -3.569481e-04  3.000000e-01
     vertex  4.756593e-02 -4.597629e-04  3.000000e-01
   endloop
 endfacet
 facet normal  1.339315e-01 -9.909906e-01  0.000000e+00
   outer loop
     vertex  4.832668e-02 -3.569481e-04  0.000000e+00
     vertex  4.756593e-02 -4.597629e-04  3.000000e-01
     vertex  4.756593e-02 -4.597629e-04  0.000000e+00
   endloop
 endfacet
 facet normal  1.238191e-01 -9.923048e-01  0.000000e+00
   outer loop
     vertex  4.895429e-02 -2.786351e-04  0.000000e+00
     vertex  4.895429e-02 -2.786351e-04  3.000000e-01
     vertex  4.832668e-02 -3.569481e-04  3.000000e-01
   endloop
 endfacet
 facet normal  1.238191e-01 -9.923048e-01  0.000000e+00
   outer loop
     vertex  4.895429e-02 -2.786351e-04  0.000000e+00
     vertex  4.832668e-02 -3.569481e-04  3.000000e-01
     vertex  4.832668e-02 -3.569481e-04  0.000000e+00
   endloop
 endfacet
 facet normal  1.710512e-01 -9.852621e-01  0.000000e+00
   outer loop
     vertex  4.944227e-02 -1.939174e-04  0.000000e+00
     vertex  4.944227e-02 -1.939174e-04  3.000000e-01
     vertex  4.895429e-02 -2.786351e-04  3.000000e-01
   endloop
 endfacet
 facet normal  1.710512e-01 -9.852621e-01  0.000000e+00
   outer loop
     vertex  4.944227e-02 -1.939174e-04  0.000000e+00
     vertex  4.895429e-02 -2.786351e-04  3.000000e-01
     vertex  4.895429e-02 -2.786351e-04  0.000000e+00
   endloop
 endfacet
 facet normal  6.586720e-02 -9.978284e-01  0.000000e+00
   outer loop
     vertex  4.969218e-02 -1.774204e-04  0.000000e+00
     vertex  4.969218e-02 -1.774204e-04  3.000000e-01
     vertex  4.944227e-02 -1.939174e-04  3.000000e-01
   endloop
 endfacet
 facet normal  6.586720e-02 -9.978284e-01  0.000000e+00
   outer loop
     vertex  4.969218e-02 -1.774204e-04  0.000000e+00
     vertex  4.944227e-02 -1.939174e-04  3.000000e-01
     vertex  4.944227e-02 -1.939174e-04  0.000000e+00
   endloop
 endfacet
 facet normal  1.507944e-01 -9.885651e-01  0.000000e+00
   outer loop
     vertex  4.986129e-02 -1.516256e-04  0.000000e+00
     vertex  4.986129e-02 -1.516256e-04  3.000000e-01
     vertex  4.969218e-02 -1.774204e-04  3.000000e-01
   endloop
 endfacet
 facet normal  1.507944e-01 -9.885651e-01  0.000000e+00
   outer loop
     vertex  4.986129e-02 -1.516256e-04  0.000000e+00
     vertex  4.969218e-02 -1.774204e-04  3.000000e-01
     vertex  4.969218e-02 -1.774204e-04  0.000000e+00
   endloop
 endfacet
 facet normal  3.590860e-01 -9.333045e-01  0.000000e+00
   outer loop
     vertex  4.995535e-02 -1.154357e-04  0.000000e+00
     vertex  4.995535e-02 -1.154357e-04  3.000000e-01
     vertex  4.986129e-02 -1.516256e-04  3.000000e-01
   endloop
 endfacet
 facet normal  3.590860e-01 -9.333045e-01  0.000000e+00
   outer loop
     vertex  4.995535e-02 -1.154357e-04  0.000000e+00
     vertex  4.986129e-02 -1.516256e-04  3.000000e-01
     vertex  4.986129e-02 -1.516256e-04  0.000000e+00
   endloop
 endfacet
 facet normal  5.437087e-01 -8.392740e-01  0.000000e+00
   outer loop
     vertex  5.003106e-02 -6.638648e-05  0.000000e+00
     vertex  5.003106e-02 -6.638648e-05  3.000000e-01
     vertex  4.995535e-02 -1.154357e-04  3.000000e-01
   endloop
 endfacet
 facet normal  5.437087e-01 -8.392740e-01  0.000000e+00
   outer loop
     vertex  5.003106e-02 -6.638648e-05  0.000000e+00
     vertex  4.995535e-02 -1.154357e-04  3.000000e-01
     vertex  4.995535e-02 -1.154357e-04  0.000000e+00
   endloop
 endfacet
 facet normal  6.936386e-01 -7.203231e-01  0.000000e+00
   outer loop
     vertex  5.010000e-02  0.000000e+00  0.000000e+00
     vertex  5.010000e-02  0.000000e+00  3.000000e-01
     vertex  5.003106e-02 -6.638648e-05  3.000000e-01
   endloop
 endfacet
 facet normal  6.936386e-01 -7.203231e-01  0.000000e+00
   outer loop
     vertex  5.010000e-02  0.000000e+00  0.000000e+00
     vertex  5.003106e-02 -6.638648e-05  3.000000e-01
     vertex  5.003106e-02 -6.638648e-05  0.000000e+00
   endloop
 endfacet
 facet normal  6.772227e-01  7.357781e-01  0.000000e+00
   outer loop
     vertex  5.001298e-02  8.009298e-05  0.000000e+00
     vertex  5.010000e-02  0.000000e+00  3.000000e-01
     vertex  5.010000e-02  0.000000e+00  0.000000e+00
   endloop
 endfacet
 facet normal  6.772227e-01  7.357781e-01 -0.000000e+00
   outer loop
     vertex  5.001298e-02  8.009298e-05  0.000000e+00
     vertex  5.001298e-02  8.009298e-05  3.000000e-01
     vertex  5.010000e-02  0.000000e+00  3.000000e-01
   endloop
 endfacet
 facet normal  4.809184e-01  8.767654e-01 -0.000000e+00
   outer loop
     vertex  4.991555e-02  1.335342e-04  0.000000e+00
     vertex  4.991555e-02  1.335342e-04  3.000000e-01
     vertex  5.001298e-02  8.009298e-05  3.000000e-01
   endloop
 endfacet
 facet normal  4.809184e-01  8.767654e-01  0.000000e+00
   outer loop
     vertex  4.991555e-02  1.335342e-04  0.000000e+00
     vertex  5.001298e-02  8.009298e-05  3.000000e-01
     vertex  5.001298e-02  8.009298e-05  0.000000e+00
   endloop
 endfacet
 facet normal  2.958707e-01  9.552280e-01 -0.000000e+00
   outer loop
     vertex  4.983896e-02  1.572573e-04  0.000000e+00
     vertex  4.983896e-02  1.572573e-04  3.000000e-01
     vertex  4.991555e-02  1.335342e-04  3.000000e-01
   endloop
 endfacet
 facet normal  2.958707e-01  9.552280e-01  0.000000e+00
   outer loop
     vertex  4.983896e-02  1.572573e-04  0.000000e+00
     vertex  4.991555e-02  1.335342e-04  3.000000e-01
     vertex  4.991555e-02  1.335342e-04  0.000000e+00
   endloop
 endfacet
 facet normal  9.503995e-02  9.954735e-01 -0.000000e+00
   outer loop
     vertex  4.937357e-02  2.016896e-04  0.000000e+00
     vertex  4.937357e-02  2.016896e-04  3.000000e-01
     vertex  4.983896e-02  1.572573e-04  3.000000e-01
   endloop
 endfacet
 facet normal  9.503995e-02  9.954735e-01  0.000000e+00
   outer loop
     vertex  4.937357e-02  2.016896e-04  0.000000e+00
     vertex  4.983896e-02  1.572573e-04  3.000000e-01
     vertex  4.983896e-02  1.572573e-04  0.000000e+00
   endloop
 endfacet
 facet normal  1.742140e-01  9.847078e-01 -0.000000e+00
   outer loop
     vertex  4.876932e-02  3.085924e-04  0.000000e+00
     vertex  4.876932e-02  3.085924e-04  3.000000e-01
     vertex  4.937357e-02  2.016896e-04  3.000000e-01
   endloop
 endfacet
 facet normal  1.742140e-01  9.847078e-01  0.000000e+00
   outer loop
     vertex  4.876932e-02  3.085924e-04  0.000000e+00
     vertex  4.937357e-02  2.016896e-04  3.000000e-01
     vertex  4.937357e-02  2.016896e-04  0.000000e+00
   endloop
 endfacet
 facet normal  1.121017e-01  9.936967e-01 -0.000000e+00
   outer loop
     vertex  4.796040e-02  3.998489e-04  0.000000e+00
     vertex  4.796040e-02  3.998489e-04  3.000000e-01
     vertex  4.876932e-02  3.085924e-04  3.000000e-01
   endloop
 endfacet
 facet normal  1.121017e-01  9.936967e-01  0.000000e+00
   outer loop
     vertex  4.796040e-02  3.998489e-04  0.000000e+00
     vertex  4.876932e-02  3.085924e-04  3.000000e-01
     vertex  4.876932e-02  3.085924e-04  0.000000e+00
   endloop
 endfacet
 facet normal  1.486862e-01  9.888844e-01 -0.000000e+00
   outer loop
     vertex  4.693208e-02  5.544646e-04  0.000000e+00
     vertex  4.693208e-02  5.544646e-04  3.000000e-01
     vertex  4.796040e-02  3.998489e-04  3.000000e-01
   endloop
 endfacet
 facet normal  1.486862e-01  9.888844e-01  0.000000e+00
   outer loop
     vertex  4.693208e-02  5.544646e-04  0.000000e+00
     vertex  4.796040e-02  3.998489e-04  3.000000e-01
     vertex  4.796040e-02  3.998489e-04  0.000000e+00
   endloop
 endfacet
 facet normal  1.293961e-01  9.915930e-01 -0.000000e+00
   outer loop
     vertex  4.341192e-02  1.013821e-03  0.000000e+00
     vertex  4.341192e-02  1.013821e-03  3.000000e-01
     vertex  4.693208e-02  5.544646e-04  3.000000e-01
   endloop
 endfacet
 facet normal  1.293961e-01  9.915930e-01  0.000000e+00
   outer loop
     vertex  4.341192e-02  1.013821e-03  0.000000e+00
     vertex  4.693208e-02  5.544646e-04  3.000000e-01
     vertex  4.693208e-02  5.544646e-04  0.000000e+00
   endloop
 endfacet
 facet normal  1.269942e-01  9.919035e-01  0.000000e+00
   outer loop
     vertex  4.079272e-02  1.349160e-03  0.000000e+00
     vertex  4.341192e-02  1.013821e-03  3.000000e-01
     vertex  4.341192e-02  1.013821e-03  0.000000e+00
   endloop
 endfacet
 facet normal  1.269942e-01  9.919035e-01 -0.000000e+00
   outer loop
     vertex  4.079272e-02  1.349160e-03  0.000000e+00
     vertex  4.079272e-02  1.349160e-03  3.000000e-01
     vertex  4.341192e-02  1.013821e-03  3.000000e-01
   endloop
 endfacet
 facet normal  1.220209e-01  9.925275e-01 -0.000000e+00
   outer loop
     vertex  3.715865e-02  1.795930e-03  0.000000e+00
     vertex  3.715865e-02  1.795930e-03  3.000000e-01
     vertex  4.079272e-02  1.349160e-03  3.000000e-01
   endloop
 endfacet
 facet normal  1.220209e-01  9.925275e-01  0.000000e+00
   outer loop
     vertex  3.715865e-02  1.795930e-03  0.000000e+00
     vertex  4.079272e-02  1.349160e-03  3.000000e-01
     vertex  4.079272e-02  1.349160e-03  0.000000e+00
   endloop
 endfacet
 facet normal  1.152444e-01  9.933372e-01  0.000000e+00
   outer loop
     vertex  3.070132e-02  2.545093e-03  0.000000e+00
     vertex  3.715865e-02  1.795930e-03  3.000000e-01
     vertex  3.715865e-02  1.795930e-03  0.000000e+00
   endloop
 endfacet
 facet normal  1.152444e-01  9.933372e-01 -0.000000e+00
   outer loop
     vertex  3.070132e-02  2.545093e-03  0.000000e+00
     vertex  3.070132e-02  2.545093e-03  3.000000e-01
     vertex  3.715865e-02  1.795930e-03  3.000000e-01
   endloop
 endfacet
 facet normal  1.074101e-01  9.942148e-01 -0.000000e+00
   outer loop
     vertex  2.519702e-02  3.139751e-03  0.000000e+00
     vertex  2.519702e-02  3.139751e-03  3.000000e-01
     vertex  3.070132e-02  2.545093e-03  3.000000e-01
   endloop
 endfacet
 facet normal  1.074101e-01  9.942148e-01  0.000000e+00
   outer loop
     vertex  2.519702e-02  3.139751e-03  0.000000e+00
     vertex  3.070132e-02  2.545093e-03  3.000000e-01
     vertex  3.070132e-02  2.545093e-03  0.000000e+00
   endloop
 endfacet
 facet normal  1.001271e-01  9.949747e-01  0.000000e+00
   outer loop
     vertex  1.968851e-02  3.694087e-03  0.000000e+00
     vertex  2.519702e-02  3.139751e-03  3.000000e-01
     vertex  2.519702e-02  3.139751e-03  0.000000e+00
   endloop
 endfacet
 facet normal  1.001271e-01  9.949747e-01 -0.000000e+00
   outer loop
     vertex  1.968851e-02  3.694087e-03  0.000000e+00
     vertex  1.968851e-02  3.694087e-03  3.000000e-01
     vertex  2.519702e-02  3.139751e-03  3.000000e-01
   endloop
 endfacet
 facet normal  9.249628e-02  9.957130e-01 -0.000000e+00
   outer loop
     vertex  1.417591e-02  4.206177e-03  0.000000e+00
     vertex  1.417591e-02  4.206177e-03  3.000000e-01
     vertex  1.968851e-02  3.694087e-03  3.000000e-01
   endloop
 endfacet
 facet normal  9.249628e-02  9.957130e-01  0.000000e+00
   outer loop
     vertex  1.417591e-02  4.206177e-03  0.000000e+00
     vertex  1.968851e-02  3.694087e-03  3.000000e-01
     vertex  1.968851e-02  3.694087e-03  0.000000e+00
   endloop
 endfacet
 facet normal  8.441529e-02  9.964307e-01  0.000000e+00
   outer loop
     vertex  8.659324e-03  4.673530e-03  0.000000e+00
     vertex  1.417591e-02  4.206177e-03  3.000000e-01
     vertex  1.417591e-02  4.206177e-03  0.000000e+00
   endloop
 endfacet
 facet normal  8.441529e-02  9.964307e-01 -0.000000e+00
   outer loop
     vertex  8.659324e-03  4.673530e-03  0.000000e+00
     vertex  8.659324e-03  4.673530e-03  3.000000e-01
     vertex  1.417591e-02  4.206177e-03  3.000000e-01
   endloop
 endfacet
 facet normal  7.723644e-02  9.970128e-01 -0.000000e+00
   outer loop
     vertex  3.691474e-03  5.058379e-03  0.000000e+00
     vertex  3.691474e-03  5.058379e-03  3.000000e-01
     vertex  8.659324e-03  4.673530e-03  3.000000e-01
   endloop
 endfacet
 facet normal  7.723644e-02  9.970128e-01  0.000000e+00
   outer loop
     vertex  3.691474e-03  5.058379e-03  0.000000e+00
     vertex  8.659324e-03  4.673530e-03  3.000000e-01
     vertex  8.659324e-03  4.673530e-03  0.000000e+00
   endloop
 endfacet
 facet normal  7.384390e-02  9.972698e-01  0.000000e+00
   outer loop
     vertex  1.207070e-03  5.242339e-03  0.000000e+00
     vertex  3.691474e-03  5.058379e-03  3.000000e-01
     vertex  3.691474e-03  5.058379e-03  0.000000e+00
   endloop
 endfacet
 facet normal  7.384390e-02  9.972698e-01 -0.000000e+00
   outer loop
     vertex  1.207070e-03  5.242339e-03  0.000000e+00
     vertex  1.207070e-03  5.242339e-03  3.000000e-01
     vertex  3.691474e-03  5.058379e-03  3.000000e-01
   endloop
 endfacet
 facet normal  5.411130e-02  9.985349e-01 -0.000000e+00
   outer loop
     vertex -5.911090e-03  5.628077e-03  0.000000e+00
     vertex -5.911090e-03  5.628077e-03  3.000000e-01
     vertex  1.207070e-03  5.242339e-03  3.000000e-01
   endloop
 endfacet
 facet normal  5.411130e-02  9.985349e-01  0.000000e+00
   outer loop
     vertex -5.911090e-03  5.628077e-03  0.000000e+00
     vertex  1.207070e-03  5.242339e-03  3.000000e-01
     vertex  1.207070e-03  5.242339e-03  0.000000e+00
   endloop
 endfacet
 facet normal  4.190738e-02  9.991215e-01  0.000000e+00
   outer loop
     vertex -1.056444e-02  5.823258e-03  0.000000e+00
     vertex -5.911090e-03  5.628077e-03  3.000000e-01
     vertex -5.911090e-03  5.628077e-03  0.000000e+00
   endloop
 endfacet
 facet normal  4.190738e-02  9.991215e-01 -0.000000e+00
   outer loop
     vertex -1.056444e-02  5.823258e-03  0.000000e+00
     vertex -1.056444e-02  5.823258e-03  3.000000e-01
     vertex -5.911090e-03  5.628077e-03  3.000000e-01
   endloop
 endfacet
 facet normal  2.925353e-02  9.995720e-01 -0.000000e+00
   outer loop
     vertex -1.441999e-02  5.936095e-03  0.000000e+00
     vertex -1.441999e-02  5.936095e-03  3.000000e-01
     vertex -1.056444e-02  5.823258e-03  3.000000e-01
   endloop
 endfacet
 facet normal  2.925353e-02  9.995720e-01  0.000000e+00
   outer loop
     vertex -1.441999e-02  5.936095e-03  0.000000e+00
     vertex -1.056444e-02  5.823258e-03  3.000000e-01
     vertex -1.056444e-02  5.823258e-03  0.000000e+00
   endloop
 endfacet
 facet normal  1.529601e-02  9.998830e-01  0.000000e+00
   outer loop
     vertex -1.827673e-02  5.995095e-03  0.000000e+00
     vertex -1.441999e-02  5.936095e-03  3.000000e-01
     vertex -1.441999e-02  5.936095e-03  0.000000e+00
   endloop
 endfacet
 facet normal  1.529601e-02  9.998830e-01 -0.000000e+00
   outer loop
     vertex -1.827673e-02  5.995095e-03  0.000000e+00
     vertex -1.827673e-02  5.995095e-03  3.000000e-01
     vertex -1.441999e-02  5.936095e-03  3.000000e-01
   endloop
 endfacet
 facet normal -9.335892e-05  1.000000e+00  0.000000e+00
   outer loop
     vertex -2.174822e-02  5.994771e-03  0.000000e+00
     vertex -2.174822e-02  5.994771e-03  3.000000e-01
     vertex -1.827673e-02  5.995095e-03  3.000000e-01
   endloop
 endfacet
 facet normal -9.335892e-05  1.000000e+00  0.000000e+00
   outer loop
     vertex -2.174822e-02  5.994771e-03  0.000000e+00
     vertex -1.827673e-02  5.995095e-03  3.000000e-01
     vertex -1.827673e-02  5.995095e-03  0.000000e+00
   endloop
 endfacet
 facet normal -1.611357e-02  9.998702e-01  0.000000e+00
   outer loop
     vertex -2.487215e-02  5.944426e-03  0.000000e+00
     vertex -2.487215e-02  5.944426e-03  3.000000e-01
     vertex -2.174822e-02  5.994771e-03  3.000000e-01
   endloop
 endfacet
 facet normal -1.611357e-02  9.998702e-01  0.000000e+00
   outer loop
     vertex -2.487215e-02  5.944426e-03  0.000000e+00
     vertex -2.174822e-02  5.994771e-03  3.000000e-01
     vertex -2.174822e-02  5.994771e-03  0.000000e+00
   endloop
 endfacet
 facet normal -3.378975e-02  9.994290e-01  0.000000e+00
   outer loop
     vertex -2.799470e-02  5.838856e-03  0.000000e+00
     vertex -2.799470e-02  5.838856e-03  3.000000e-01
     vertex -2.487215e-02  5.944426e-03  3.000000e-01
   endloop
 endfacet
 facet normal -3.378975e-02  9.994290e-01  0.000000e+00
   outer loop
     vertex -2.799470e-02  5.838856e-03  0.000000e+00
     vertex -2.487215e-02  5.944426e-03  3.000000e-01
     vertex -2.487215e-02  5.944426e-03  0.000000e+00
   endloop
 endfacet
 facet normal -5.336805e-02  9.985749e-01  0.000000e+00
   outer loop
     vertex -3.080260e-02  5.688790e-03  0.000000e+00
     vertex -2.799470e-02  5.838856e-03  3.000000e-01
     vertex -2.799470e-02  5.838856e-03  0.000000e+00
   endloop
 endfacet
 facet normal -5.336805e-02  9.985749e-01  0.000000e+00
   outer loop
     vertex -3.080260e-02  5.688790e-03  0.000000e+00
     vertex -3.080260e-02  5.688790e-03  3.000000e-01
     vertex -2.799470e-02  5.838856e-03  3.000000e-01
   endloop
 endfacet
 facet normal -7.404346e-02  9.972550e-01  0.000000e+00
   outer loop
     vertex -3.332637e-02  5.501407e-03  0.000000e+00
     vertex -3.332637e-02  5.501407e-03  3.000000e-01
     vertex -3.080260e-02  5.688790e-03  3.000000e-01
   endloop
 endfacet
 facet normal -7.404346e-02  9.972550e-01  0.000000e+00
   outer loop
     vertex -3.332637e-02  5.501407e-03  0.000000e+00
     vertex -3.080260e-02  5.688790e-03  3.000000e-01
     vertex -3.080260e-02  5.688790e-03  0.000000e+00
   endloop
 endfacet
 facet normal -9.595018e-02  9.953861e-01  0.000000e+00
   outer loop
     vertex -3.559351e-02  5.282866e-03  0.000000e+00
     vertex -3.559351e-02  5.282866e-03  3.000000e-01
     vertex -3.332637e-02  5.501407e-03  3.000000e-01
   endloop
 endfacet
 facet normal -9.595018e-02  9.953861e-01  0.000000e+00
   outer loop
     vertex -3.559351e-02  5.282866e-03  0.000000e+00
     vertex -3.332637e-02  5.501407e-03  3.000000e-01
     vertex -3.332637e-02  5.501407e-03  0.000000e+00
   endloop
 endfacet
 facet normal -1.196946e-01  9.928108e-01  0.000000e+00
   outer loop
     vertex -3.770167e-02  5.028704e-03  0.000000e+00
     vertex -3.770167e-02  5.028704e-03  3.000000e-01
     vertex -3.559351e-02  5.282866e-03  3.000000e-01
   endloop
 endfacet
 facet normal -1.196946e-01  9.928108e-01  0.000000e+00
   outer loop
     vertex -3.770167e-02  5.028704e-03  0.000000e+00
     vertex -3.559351e-02  5.282866e-03  3.000000e-01
     vertex -3.559351e-02  5.282866e-03  0.000000e+00
   endloop
 endfacet
 facet normal -1.459306e-01  9.892948e-01  0.000000e+00
   outer loop
     vertex -3.961387e-02  4.746636e-03  0.000000e+00
     vertex -3.961387e-02  4.746636e-03  3.000000e-01
     vertex -3.770167e-02  5.028704e-03  3.000000e-01
   endloop
 endfacet
 facet normal -1.459306e-01  9.892948e-01  0.000000e+00
   outer loop
     vertex -3.961387e-02  4.746636e-03  0.000000e+00
     vertex -3.770167e-02  5.028704e-03  3.000000e-01
     vertex -3.770167e-02  5.028704e-03  0.000000e+00
   endloop
 endfacet
 facet normal -1.748469e-01  9.845956e-01  0.000000e+00
   outer loop
     vertex -4.134304e-02  4.439566e-03  0.000000e+00
     vertex -4.134304e-02  4.439566e-03  3.000000e-01
     vertex -3.961387e-02  4.746636e-03  3.000000e-01
   endloop
 endfacet
 facet normal -1.748469e-01  9.845956e-01  0.000000e+00
   outer loop
     vertex -4.134304e-02  4.439566e-03  0.000000e+00
     vertex -3.961387e-02  4.746636e-03  3.000000e-01
     vertex -3.961387e-02  4.746636e-03  0.000000e+00
   endloop
 endfacet
 facet normal -2.071410e-01  9.783111e-01  0.000000e+00
   outer loop
     vertex -4.287619e-02  4.114947e-03  0.000000e+00
     vertex -4.287619e-02  4.114947e-03  3.000000e-01
     vertex -4.134304e-02  4.439566e-03  3.000000e-01
   endloop
 endfacet
 facet normal -2.071410e-01  9.783111e-01  0.000000e+00
   outer loop
     vertex -4.287619e-02  4.114947e-03  0.000000e+00
     vertex -4.134304e-02  4.439566e-03  3.000000e-01
     vertex -4.134304e-02  4.439566e-03  0.000000e+00
   endloop
 endfacet
 facet normal -2.430699e-01  9.700088e-01  0.000000e+00
   outer loop
     vertex -4.424159e-02  3.772797e-03  0.000000e+00
     vertex -4.424159e-02  3.772797e-03  3.000000e-01
     vertex -4.287619e-02  4.114947e-03  3.000000e-01
   endloop
 endfacet
 facet normal -2.430699e-01  9.700088e-01  0.000000e+00
   outer loop
     vertex -4.424159e-02  3.772797e-03  0.000000e+00
     vertex -4.287619e-02  4.114947e-03  3.000000e-01
     vertex -4.287619e-02  4.114947e-03  0.000000e+00
   endloop
 endfacet
 facet normal -2.842166e-01  9.587601e-01  0.000000e+00
   outer loop
     vertex -4.541418e-02  3.425192e-03  0.000000e+00
     vertex -4.541418e-02  3.425192e-03  3.000000e-01
     vertex -4.424159e-02  3.772797e-03  3.000000e-01
   endloop
 endfacet
 facet normal -2.842166e-01  9.587601e-01  0.000000e+00
   outer loop
     vertex -4.541418e-02  3.425192e-03  0.000000e+00
     vertex -4.424159e-02  3.772797e-03  3.000000e-01
     vertex -4.424159e-02  3.772797e-03  0.000000e+00
   endloop
 endfacet
 facet normal -3.302168e-01  9.439051e-01  0.000000e+00
   outer loop
     vertex -4.643323e-02  3.068688e-03  0.000000e+00
     vertex -4.643323e-02  3.068688e-03  3.000000e-01
     vertex -4.541418e-02  3.425192e-03  3.000000e-01
   endloop
 endfacet
 facet normal -3.302168e-01  9.439051e-01  0.000000e+00
   outer loop
     vertex -4.643323e-02  3.068688e-03  0.000000e+00
     vertex -4.541418e-02  3.425192e-03  3.000000e-01
     vertex -4.541418e-02  3.425192e-03  0.000000e+00
   endloop
 endfacet
 facet normal -3.836347e-01  9.234849e-01  0.000000e+00
   outer loop
     vertex -4.729003e-02  2.712753e-03  0.000000e+00
     vertex -4.643323e-02  3.068688e-03  3.000000e-01
     vertex -4.643323e-02  3.068688e-03  0.000000e+00
   endloop
 endfacet
 facet normal -3.836347e-01  9.234849e-01  0.000000e+00
   outer loop
     vertex -4.729003e-02  2.712753e-03  0.000000e+00
     vertex -4.729003e-02  2.712753e-03  3.000000e-01
     vertex -4.643323e-02  3.068688e-03  3.000000e-01
   endloop
 endfacet
 facet normal -4.456724e-01  8.951961e-01  0.000000e+00
   outer loop
     vertex -4.798517e-02  2.366678e-03  0.000000e+00
     vertex -4.798517e-02  2.366678e-03  3.000000e-01
     vertex -4.729003e-02  2.712753e-03  3.000000e-01
   endloop
 endfacet
 facet normal -4.456724e-01  8.951961e-01  0.000000e+00
   outer loop
     vertex -4.798517e-02  2.366678e-03  0.000000e+00
     vertex -4.729003e-02  2.712753e-03  3.000000e-01
     vertex -4.729003e-02  2.712753e-03  0.000000e+00
   endloop
 endfacet
 facet normal -5.135834e-01  8.580397e-01  0.000000e+00
   outer loop
     vertex -4.856761e-02  2.018060e-03  0.000000e+00
     vertex -4.798517e-02  2.366678e-03  3.000000e-01
     vertex -4.798517e-02  2.366678e-03  0.000000e+00
   endloop
 endfacet
 facet normal -5.135834e-01  8.580397e-01  0.000000e+00
   outer loop
     vertex -4.856761e-02  2.018060e-03  0.000000e+00
     vertex -4.856761e-02  2.018060e-03  3.000000e-01
     vertex -4.798517e-02  2.366678e-03  3.000000e-01
   endloop
 endfacet
 facet normal -5.911019e-01  8.065969e-01  0.000000e+00
   outer loop
     vertex -4.902824e-02  1.680493e-03  0.000000e+00
     vertex -4.856761e-02  2.018060e-03  3.000000e-01
     vertex -4.856761e-02  2.018060e-03  0.000000e+00
   endloop
 endfacet
 facet normal -5.911019e-01  8.065969e-01  0.000000e+00
   outer loop
     vertex -4.902824e-02  1.680493e-03  0.000000e+00
     vertex -4.902824e-02  1.680493e-03  3.000000e-01
     vertex -4.856761e-02  2.018060e-03  3.000000e-01
   endloop
 endfacet
 facet normal -6.782164e-01  7.348622e-01  0.000000e+00
   outer loop
     vertex -4.937564e-02  1.359876e-03  0.000000e+00
     vertex -4.902824e-02  1.680493e-03  3.000000e-01
     vertex -4.902824e-02  1.680493e-03  0.000000e+00
   endloop
 endfacet
 facet normal -6.782164e-01  7.348622e-01  0.000000e+00
   outer loop
     vertex -4.937564e-02  1.359876e-03  0.000000e+00
     vertex -4.937564e-02  1.359876e-03  3.000000e-01
     vertex -4.902824e-02  1.680493e-03  3.000000e-01
   endloop
 endfacet
 facet normal -7.683371e-01  6.400454e-01  0.000000e+00
   outer loop
     vertex -4.963411e-02  1.049591e-03  0.000000e+00
     vertex -4.937564e-02  1.359876e-03  3.000000e-01
     vertex -4.937564e-02  1.359876e-03  0.000000e+00
   endloop
 endfacet
 facet normal -7.683371e-01  6.400454e-01  0.000000e+00
   outer loop
     vertex -4.963411e-02  1.049591e-03  0.000000e+00
     vertex -4.963411e-02  1.049591e-03  3.000000e-01
     vertex -4.937564e-02  1.359876e-03  3.000000e-01
   endloop
 endfacet
 facet normal -8.545233e-01  5.194131e-01  0.000000e+00
   outer loop
     vertex -4.981646e-02  7.495919e-04  0.000000e+00
     vertex -4.963411e-02  1.049591e-03  3.000000e-01
     vertex -4.963411e-02  1.049591e-03  0.000000e+00
   endloop
 endfacet
 facet normal -8.545233e-01  5.194131e-01  0.000000e+00
   outer loop
     vertex -4.981646e-02  7.495919e-04  0.000000e+00
     vertex -4.981646e-02  7.495919e-04  3.000000e-01
     vertex -4.963411e-02  1.049591e-03  3.000000e-01
   endloop
 endfacet
 facet normal -9.288566e-01  3.704395e-01  0.000000e+00
   outer loop
     vertex -4.993026e-02  4.642446e-04  0.000000e+00
     vertex -4.981646e-02  7.495919e-04  3.000000e-01
     vertex -4.981646e-02  7.495919e-04  0.000000e+00
   endloop
 endfacet
 facet normal -9.288566e-01  3.704395e-01  0.000000e+00
   outer loop
     vertex -4.993026e-02  4.642446e-04  0.000000e+00
     vertex -4.993026e-02  4.642446e-04  3.000000e-01
     vertex -4.981646e-02  7.495919e-04  3.000000e-01
   endloop
 endfacet
 facet normal -9.758191e-01  2.185798e-01  0.000000e+00
   outer loop
     vertex -4.998124e-02  2.366819e-04  0.000000e+00
     vertex -4.993026e-02  4.642446e-04  3.000000e-01
     vertex -4.993026e-02  4.642446e-04  0.000000e+00
   endloop
 endfacet
 facet normal -9.758191e-01  2.185798e-01  0.000000e+00
   outer loop
     vertex -4.998124e-02  2.366819e-04  0.000000e+00
     vertex -4.998124e-02  2.366819e-04  3.000000e-01
     vertex -4.993026e-02  4.642446e-04  3.000000e-01
   endloop
 endfacet
 facet normal -9.968719e-01  7.903425e-02  0.000000e+00
   outer loop
     vertex -5.000000e-02  0.000000e+00  0.000000e+00
     vertex -4.998124e-02  2.366819e-04  3.000000e-01
     vertex -4.998124e-02  2.366819e-04  0.000000e+00
   endloop
 endfacet
 facet normal -9.968719e-01  7.903425e-02  0.000000e+00
   outer loop
     vertex -5.000000e-02  0.000000e+00  0.000000e+00
     vertex -5.000000e-02  0.000000e+00  3.000000e-01
     vertex -4.998124e-02  2.366819e-04  3.000000e-01
   endloop
 endfacet
 facet normal  0.000000e+00 -0.000000e+00 -1.000000e+00
   outer loop
     vertex -4.998124e-02  2.366819e-04  0.000000e+00
     vertex -4.997257e-02 -2.885711e-04  0.000000e+00
     vertex -5.000000e-02  0.000000e+00  0.000000e+00
   endloop
 endfacet
 facet normal  0.000000e+00 -0.000000e+00 -1.000000e+00
   outer loop
     vertex -4.993026e-02  4.642446e-04  0.000000e+00
     vertex -4.989720e-02 -5.633609e-04  0.000000e+00
     vertex -4.997257e-02 -2.885711e-04  0.000000e+00
   endloop
 endfacet
 facet normal  0.000000e+00  0.000000e+00 -1.000000e+00
   outer loop
     vertex -4.993026e-02  4.642446e-04  0.000000e+00
     vertex -4.997257e-02 -2.885711e-04  0.000000e+00
     vertex -4.998124e-02  2.366819e-04  0.000000e+00
   endloop
 endfacet
 facet normal  0.000000e+00 -0.000000e+00 -1.000000e+00
   outer loop
     vertex -4.981646e-02  7.495919e-04  0.000000e+00
     vertex -4.975883e-02 -8.566873e-04  0.000000e+00
     vertex -4.989720e-02 -5.633609e-04  0.000000e+00
   endloop
 endfacet
 facet normal  0.000000e+00  0.000000e+00 -1.000000e+00
   outer loop
     vertex -4.981646e-02  7.495919e-04  0.000000e+00
     vertex -4.989720e-02 -5.633609e-04  0.000000e+00
     vertex -4.993026e-02  4.642446e-04  0.000000e+00
   endloop
 endfacet
 facet normal  0.000000e+00 -0.000000e+00 -1.000000e+00
   outer loop
     vertex -4.963411e-02  1.049591e-03  0.000000e+00
     vertex -4.955593e-02 -1.153151e-03  0.000000e+00
     vertex -4.975883e-02 -8.566873e-04  0.000000e+00
   endloop
 endfacet
 facet normal  0.000000e+00  0.000000e+00 -1.000000e+00
   outer loop
     vertex -4.963411e-02  1.049591e-03  0.000000e+00
     vertex -4.975883e-02 -8.566873e-04  0.000000e+00
     vertex -4.981646e-02  7.495919e-04  0.000000e+00
   endloop
 endfacet
 facet normal  0.000000e+00 -0.000000e+00 -1.000000e+00
   outer loop
     vertex -4.937564e-02  1.359876e-03  0.000000e+00
     vertex -4.928152e-02 -1.454893e-03  0.000000e+00
     vertex -4.955593e-02 -1.153151e-03  0.000000e+00
   endloop
 endfacet
 facet normal  0.000000e+00  0.000000e+00 -1.000000e+00
   outer loop
     vertex -4.937564e-02  1.359876e-03  0.000000e+00
     vertex -4.955593e-02 -1.153151e-03  0.000000e+00
     vertex -4.963411e-02  1.049591e-03  0.000000e+00
   endloop
 endfacet
 facet normal  0.000000e+00 -0.000000e+00 -1.000000e+00
   outer loop
     vertex -4.902824e-02  1.680493e-03  0.000000e+00
     vertex -4.892874e-02 -1.759954e-03  0.000000e+00
     vertex -4.928152e-02 -1.454893e-03  0.000000e+00
   endloop
 endfacet
 facet normal  0.000000e+00  0.000000e+00 -1.000000e+00
   outer loop
     vertex -4.902824e-02  1.680493e-03  0.000000e+00
     vertex -4.928152e-02 -1.454893e-03  0.000000e+00
     vertex -4.937564e-02  1.359876e-03  0.000000e+00
   endloop
 endfacet
 facet normal  0.000000e+00 -0.000000e+00 -1.000000e+00
   outer loop
     vertex -4.856761e-02  2.018060e-03  0.000000e+00
     vertex -4.847856e-02 -2.075934e-03  0.000000e+00
     vertex -4.892874e-02 -1.759954e-03  0.000000e+00
   endloop
 endfacet
 facet normal  0.000000e+00  0.000000e+00 -1.000000e+00
   outer loop
     vertex -4.856761e-02  2.018060e-03  0.000000e+00
     vertex -4.892874e-02 -1.759954e-03  0.000000e+00
     vertex -4.902824e-02  1.680493e-03  0.000000e+00
   endloop
 endfacet
 facet normal  0.000000e+00 -0.000000e+00 -1.000000e+00
   outer loop
     vertex -4.798517e-02  2.366678e-03  0.000000e+00
     vertex -4.791046e-02 -2.407017e-03  0.000000e+00
     vertex -4.847856e-02 -2.075934e-03  0.000000e+00
   endloop
 endfacet
 facet normal  0.000000e+00  0.000000e+00 -1.000000e+00
   outer loop
     vertex -4.798517e-02  2.366678e-03  0.000000e+00
     vertex -4.847856e-02 -2.075934e-03  0.000000e+00
     vertex -4.856761e-02  2.018060e-03  0.000000e+00
   endloop
 endfacet
 facet normal  0.000000e+00  0.000000e+00 -1.000000e+00
   outer loop
     vertex -4.729003e-02  2.712753e-03  0.000000e+00
     vertex -4.733887e-02 -2.690375e-03  0.000000e+00
     vertex -4.791046e-02 -2.407017e-03  0.000000e+00
   endloop
 endfacet
 facet normal  0.000000e+00 -0.000000e+00 -1.000000e+00
   outer loop
     vertex -4.729003e-02  2.712753e-03  0.000000e+00
     vertex -4.655436e-02 -3.022045e-03  0.000000e+00
     vertex -4.733887e-02 -2.690375e-03  0.000000e+00
   endloop
 endfacet
 facet normal  0.000000e+00  0.000000e+00 -1.000000e+00
   outer loop
     vertex -4.729003e-02  2.712753e-03  0.000000e+00
     vertex -4.791046e-02 -2.407017e-03  0.000000e+00
     vertex -4.798517e-02  2.366678e-03  0.000000e+00
   endloop
 endfacet
 facet normal  0.000000e+00  0.000000e+00 -1.000000e+00
   outer loop
     vertex -4.643323e-02  3.068688e-03  0.000000e+00
     vertex -4.655436e-02 -3.022045e-03  0.000000e+00
     vertex -4.729003e-02  2.712753e-03  0.000000e+00
   endloop
 endfacet
 facet normal  0.000000e+00 -0.000000e+00 -1.000000e+00
   outer loop
     vertex -4.643323e-02  3.068688e-03  0.000000e+00
     vertex -4.560872e-02 -3.361534e-03  0.000000e+00
     vertex -4.655436e-02 -3.022045e-03  0.000000e+00
   endloop
 endfacet
 facet normal  0.000000e+00 -0.000000e+00 -1.000000e+00
   outer loop
     vertex -4.541418e-02  3.425192e-03  0.000000e+00
     vertex -4.448495e-02 -3.705302e-03  0.000000e+00
     vertex -4.560872e-02 -3.361534e-03  0.000000e+00
   endloop
 endfacet
 facet normal  0.000000e+00  0.000000e+00 -1.000000e+00
   outer loop
     vertex -4.541418e-02  3.425192e-03  0.000000e+00
     vertex -4.560872e-02 -3.361534e-03  0.000000e+00
     vertex -4.643323e-02  3.068688e-03  0.000000e+00
   endloop
 endfacet
 facet normal  0.000000e+00 -0.000000e+00 -1.000000e+00
   outer loop
     vertex -4.424159e-02  3.772797e-03  0.000000e+00
     vertex -4.320646e-02 -4.037315e-03  0.000000e+00
     vertex -4.448495e-02 -3.705302e-03  0.000000e+00
   endloop
 endfacet
 facet normal  0.000000e+00  0.000000e+00 -1.000000e+00
   outer loop
     vertex -4.424159e-02  3.772797e-03  0.000000e+00
     vertex -4.448495e-02 -3.705302e-03  0.000000e+00
     vertex -4.541418e-02  3.425192e-03  0.000000e+00
   endloop
 endfacet
 facet normal  0.000000e+00 -0.000000e+00 -1.000000e+00
   outer loop
     vertex -4.287619e-02  4.114947e-03  0.000000e+00
     vertex -4.172167e-02 -4.364458e-03  0.000000e+00
     vertex -4.320646e-02 -4.037315e-03  0.000000e+00
   endloop
 endfacet
 facet normal  0.000000e+00  0.000000e+00 -1.000000e+00
   outer loop
     vertex -4.287619e-02  4.114947e-03  0.000000e+00
     vertex -4.320646e-02 -4.037315e-03  0.000000e+00
     vertex -4.424159e-02  3.772797e-03  0.000000e+00
   endloop
 endfacet
 facet normal  0.000000e+00 -0.000000e+00 -1.000000e+00
   outer loop
     vertex -4.134304e-02  4.439566e-03  0.000000e+00
     vertex -4.005363e-02 -4.673694e-03  0.000000e+00
     vertex -4.172167e-02 -4.364458e-03  0.000000e+00
   endloop
 endfacet
 facet normal  0.000000e+00  0.000000e+00 -1.000000e+00
   outer loop
     vertex -4.134304e-02  4.439566e-03  0.000000e+00
     vertex -4.172167e-02 -4.364458e-03  0.000000e+00
     vertex -4.287619e-02  4.114947e-03  0.000000e+00
   endloop
 endfacet
 facet normal  0.000000e+00 -0.000000e+00 -1.000000e+00
   outer loop
     vertex -3.961387e-02  4.746636e-03  0.000000e+00
     vertex -3.817554e-02 -4.963769e-03  0.000000e+00
     vertex -4.005363e-02 -4.673694e-03  0.000000e+00
   endloop
 endfacet
 facet normal  0.000000e+00  0.000000e+00 -1.000000e+00
   outer loop
     vertex -3.961387e-02  4.746636e-03  0.000000e+00
     vertex -4.005363e-02 -4.673694e-03  0.000000e+00
     vertex -4.134304e-02  4.439566e-03  0.000000e+00
   endloop
 endfacet
 facet normal  0.000000e+00 -0.000000e+00 -1.000000e+00
   outer loop
     vertex -3.770167e-02  5.028704e-03  0.000000e+00
     vertex -3.609190e-02 -5.227567e-03  0.000000e+00
     vertex -3.817554e-02 -4.963769e-03  0.000000e+00
   endloop
 endfacet
 facet normal  0.000000e+00  0.000000e+00 -1.000000e+00
   outer loop
     vertex -3.770167e-02  5.028704e-03  0.000000e+00
     vertex -3.817554e-02 -4.963769e-03  0.000000e+00
     vertex -3.961387e-02  4.746636e-03  0.000000e+00
   endloop
 endfacet
 facet normal  0.000000e+00 -0.000000e+00 -1.000000e+00
   outer loop
     vertex -3.559351e-02  5.282866e-03  0.000000e+00
     vertex -3.379303e-02 -5.460589e-03  0.000000e+00
     vertex -3.609190e-02 -5.227567e-03  0.000000e+00
   endloop
 endfacet
 facet normal  0.000000e+00  0.000000e+00 -1.000000e+00
   outer loop
     vertex -3.559351e-02  5.282866e-03  0.000000e+00
     vertex -3.609190e-02 -5.227567e-03  0.000000e+00
     vertex -3.770167e-02  5.028704e-03  0.000000e+00
   endloop
 endfacet
 facet normal  0.000000e+00 -0.000000e+00 -1.000000e+00
   outer loop
     vertex -3.332637e-02  5.501407e-03  0.000000e+00
     vertex -3.148959e-02 -5.643073e-03  0.000000e+00
     vertex -3.379303e-02 -5.460589e-03  0.000000e+00
   endloop
 endfacet
 facet normal  0.000000e+00  0.000000e+00 -1.000000e+00
   outer loop
     vertex -3.332637e-02  5.501407e-03  0.000000e+00
     vertex -3.379303e-02 -5.460589e-03  0.000000e+00
     vertex -3.559351e-02  5.282866e-03  0.000000e+00
   endloop
 endfacet
 facet normal  0.000000e+00 -0.000000e+00 -1.000000e+00
   outer loop
     vertex -3.080260e-02  5.688790e-03  0.000000e+00
     vertex -2.918313e-02 -5.782234e-03  0.000000e+00
     vertex -3.148959e-02 -5.643073e-03  0.000000e+00
   endloop
 endfacet
 facet normal  0.000000e+00  0.000000e+00 -1.000000e+00
   outer loop
     vertex -3.080260e-02  5.688790e-03  0.000000e+00
     vertex -3.148959e-02 -5.643073e-03  0.000000e+00
     vertex -3.332637e-02  5.501407e-03  0.000000e+00
   endloop
 endfacet
 facet normal  0.000000e+00 -0.000000e+00 -1.000000e+00
   outer loop
     vertex -2.799470e-02  5.838856e-03  0.000000e+00
     vertex -2.687470e-02 -5.883623e-03  0.000000e+00
     vertex -2.918313e-02 -5.782234e-03  0.000000e+00
   endloop
 endfacet
 facet normal  0.000000e+00  0.000000e+00 -1.000000e+00
   outer loop
     vertex -2.799470e-02  5.838856e-03  0.000000e+00
     vertex -2.918313e-02 -5.782234e-03  0.000000e+00
     vertex -3.080260e-02  5.688790e-03  0.000000e+00
   endloop
 endfacet
 facet normal  0.000000e+00 -0.000000e+00 -1.000000e+00
   outer loop
     vertex -2.487215e-02  5.944426e-03  0.000000e+00
     vertex -2.379498e-02 -5.967618e-03  0.000000e+00
     vertex -2.687470e-02 -5.883623e-03  0.000000e+00
   endloop
 endfacet
 facet normal  0.000000e+00  0.000000e+00 -1.000000e+00
   outer loop
     vertex -2.487215e-02  5.944426e-03  0.000000e+00
     vertex -2.687470e-02 -5.883623e-03  0.000000e+00
     vertex -2.799470e-02  5.838856e-03  0.000000e+00
   endloop
 endfacet
 facet normal  0.000000e+00 -0.000000e+00 -1.000000e+00
   outer loop
     vertex -2.174822e-02  5.994771e-03  0.000000e+00
     vertex -2.071430e-02 -6.000611e-03  0.000000e+00
     vertex -2.379498e-02 -5.967618e-03  0.000000e+00
   endloop
 endfacet
 facet normal  0.000000e+00  0.000000e+00 -1.000000e+00
   outer loop
     vertex -2.174822e-02  5.994771e-03  0.000000e+00
     vertex -2.379498e-02 -5.967618e-03  0.000000e+00
     vertex -2.487215e-02  5.944426e-03  0.000000e+00
   endloop
 endfacet
 facet normal  0.000000e+00 -0.000000e+00 -1.000000e+00
   outer loop
     vertex -1.827673e-02  5.995095e-03  0.000000e+00
     vertex -1.763345e-02 -5.989330e-03  0.000000e+00
     vertex -2.071430e-02 -6.000611e-03  0.000000e+00
   endloop
 endfacet
 facet normal  0.000000e+00  0.000000e+00 -1.000000e+00
   outer loop
     vertex -1.827673e-02  5.995095e-03  0.000000e+00
     vertex -2.071430e-02 -6.000611e-03  0.000000e+00
     vertex -2.174822e-02  5.994771e-03  0.000000e+00
   endloop
 endfacet
 facet normal  0.000000e+00  0.000000e+00 -1.000000e+00
   outer loop
     vertex -1.441999e-02  5.936095e-03  0.000000e+00
     vertex -1.455300e-02 -5.939046e-03  0.000000e+00
     vertex -1.763345e-02 -5.989330e-03  0.000000e+00
   endloop
 endfacet
 facet normal  0.000000e+00 -0.000000e+00 -1.000000e+00
   outer loop
     vertex -1.441999e-02  5.936095e-03  0.000000e+00
     vertex -1.147328e-02 -5.854654e-03  0.000000e+00
     vertex -1.455300e-02 -5.939046e-03  0.000000e+00
   endloop
 endfacet
 facet normal -0.000000e+00  0.000000e+00 -1.000000e+00
   outer loop
     vertex -1.441999e-02  5.936095e-03  0.000000e+00
     vertex -1.763345e-02 -5.989330e-03  0.000000e+00
     vertex -1.827673e-02  5.995095e-03  0.000000e+00
   endloop
 endfacet
 facet normal -0.000000e+00  0.000000e+00 -1.000000e+00
   outer loop
     vertex -1.056444e-02  5.823258e-03  0.000000e+00
     vertex -1.147328e-02 -5.854654e-03  0.000000e+00
     vertex -1.441999e-02  5.936095e-03  0.000000e+00
   endloop
 endfacet
 facet normal  0.000000e+00 -0.000000e+00 -1.000000e+00
   outer loop
     vertex -1.056444e-02  5.823258e-03  0.000000e+00
     vertex -7.368533e-03 -5.695478e-03  0.000000e+00
     vertex -1.147328e-02 -5.854654e-03  0.000000e+00
   endloop
 endfacet
 facet normal -0.000000e+00  0.000000e+00 -1.000000e+00
   outer loop
     vertex -5.911090e-03  5.628077e-03  0.000000e+00
     vertex -7.368533e-03 -5.695478e-03  0.000000e+00
     vertex -1.056444e-02  5.823258e-03  0.000000e+00
   endloop
 endfacet
 facet normal  0.000000e+00 -0.000000e+00 -1.000000e+00
   outer loop
     vertex -5.911090e-03  5.628077e-03  0.000000e+00
     vertex -3.676344e-03 -5.507372e-03  0.000000e+00
     vertex -7.368533e-03 -5.695478e-03  0.000000e+00
   endloop
 endfacet
 facet normal -0.000000e+00  0.000000e+00 -1.000000e+00
   outer loop
     vertex  1.207070e-03  5.242339e-03  0.000000e+00
     vertex -3.676344e-03 -5.507372e-03  0.000000e+00
     vertex -5.911090e-03  5.628077e-03  0.000000e+00
   endloop
 endfacet
 facet normal  0.000000e+00  0.000000e+00 -1.000000e+00
   outer loop
     vertex  1.207070e-03  5.242339e-03  0.000000e+00
     vertex  1.153186e-03 -5.245637e-03  0.000000e+00
     vertex -3.676344e-03 -5.507372e-03  0.000000e+00
   endloop
 endfacet
 facet normal  0.000000e+00 -0.000000e+00 -1.000000e+00
   outer loop
     vertex  1.207070e-03  5.242339e-03  0.000000e+00
     vertex  3.636326e-03 -5.062936e-03  0.000000e+00
     vertex  1.153186e-03 -5.245637e-03  0.000000e+00
   endloop
 endfacet
 facet normal -0.000000e+00  0.000000e+00 -1.000000e+00
   outer loop
     vertex  3.691474e-03  5.058379e-03  0.000000e+00
     vertex  3.636326e-03 -5.062936e-03  0.000000e+00
     vertex  1.207070e-03  5.242339e-03  0.000000e+00
   endloop
 endfacet
 facet normal  0.000000e+00 -0.000000e+00 -1.000000e+00
   outer loop
     vertex  3.691474e-03  5.058379e-03  0.000000e+00
     vertex  6.822641e-03 -4.811934e-03  0.000000e+00
     vertex  3.636326e-03 -5.062936e-03  0.000000e+00
   endloop
 endfacet
 facet normal -0.000000e+00  0.000000e+00 -1.000000e+00
   outer loop
     vertex  8.659324e-03  4.673530e-03  0.000000e+00
     vertex  6.822641e-03 -4.811934e-03  0.000000e+00
     vertex  3.691474e-03  5.058379e-03  0.000000e+00
   endloop
 endfacet
 facet normal  0.000000e+00 -0.000000e+00 -1.000000e+00
   outer loop
     vertex  8.659324e-03  4.673530e-03  0.000000e+00
     vertex  1.000911e-02 -4.564136e-03  0.000000e+00
     vertex  6.822641e-03 -4.811934e-03  0.000000e+00
   endloop
 endfacet
 facet normal -0.000000e+00  0.000000e+00 -1.000000e+00
   outer loop
     vertex  1.417591e-02  4.206177e-03  0.000000e+00
     vertex  1.000911e-02 -4.564136e-03  0.000000e+00
     vertex  8.659324e-03  4.673530e-03  0.000000e+00
   endloop
 endfacet
 facet normal  0.000000e+00 -0.000000e+00 -1.000000e+00
   outer loop
     vertex  1.417591e-02  4.206177e-03  0.000000e+00
     vertex  1.509031e-02 -4.124665e-03  0.000000e+00
     vertex  1.000911e-02 -4.564136e-03  0.000000e+00
   endloop
 endfacet
 facet normal -0.000000e+00  0.000000e+00 -1.000000e+00
   outer loop
     vertex  1.968851e-02  3.694087e-03  0.000000e+00
     vertex  1.509031e-02 -4.124665e-03  0.000000e+00
     vertex  1.417591e-02  4.206177e-03  0.000000e+00
   endloop
 endfacet
 facet normal  0.000000e+00 -0.000000e+00 -1.000000e+00
   outer loop
     vertex  1.968851e-02  3.694087e-03  0.000000e+00
     vertex  1.991248e-02 -3.672384e-03  0.000000e+00
     vertex  1.509031e-02 -4.124665e-03  0.000000e+00
   endloop
 endfacet
 facet normal -0.000000e+00  0.000000e+00 -1.000000e+00
   outer loop
     vertex  2.519702e-02  3.139751e-03  0.000000e+00
     vertex  1.991248e-02 -3.672384e-03  0.000000e+00
     vertex  1.968851e-02  3.694087e-03  0.000000e+00
   endloop
 endfacet
 facet normal  0.000000e+00 -0.000000e+00 -1.000000e+00
   outer loop
     vertex  2.519702e-02  3.139751e-03  0.000000e+00
     vertex  2.556568e-02 -3.101191e-03  0.000000e+00
     vertex  1.991248e-02 -3.672384e-03  0.000000e+00
   endloop
 endfacet
 facet normal -0.000000e+00  0.000000e+00 -1.000000e+00
   outer loop
     vertex  3.070132e-02  2.545093e-03  0.000000e+00
     vertex  2.556568e-02 -3.101191e-03  0.000000e+00
     vertex  2.519702e-02  3.139751e-03  0.000000e+00
   endloop
 endfacet
 facet normal  0.000000e+00 -0.000000e+00 -1.000000e+00
   outer loop
     vertex  3.070132e-02  2.545093e-03  0.000000e+00
     vertex  3.121445e-02 -2.487623e-03  0.000000e+00
     vertex  2.556568e-02 -3.101191e-03  0.000000e+00
   endloop
 endfacet
 facet normal -0.000000e+00  0.000000e+00 -1.000000e+00
   outer loop
     vertex  3.715865e-02  1.795930e-03  0.000000e+00
     vertex  3.121445e-02 -2.487623e-03  0.000000e+00
     vertex  3.070132e-02  2.545093e-03  0.000000e+00
   endloop
 endfacet
 facet normal  0.000000e+00  0.000000e+00 -1.000000e+00
   outer loop
     vertex  3.715865e-02  1.795930e-03  0.000000e+00
     vertex  3.685853e-02 -1.832006e-03  0.000000e+00
     vertex  3.121445e-02 -2.487623e-03  0.000000e+00
   endloop
 endfacet
 facet normal -0.000000e+00  0.000000e+00 -1.000000e+00
   outer loop
     vertex  4.079272e-02  1.349160e-03  0.000000e+00
     vertex  3.685853e-02 -1.832006e-03  0.000000e+00
     vertex  3.715865e-02  1.795930e-03  0.000000e+00
   endloop
 endfacet
 facet normal  0.000000e+00 -0.000000e+00 -1.000000e+00
   outer loop
     vertex  4.079272e-02  1.349160e-03  0.000000e+00
     vertex  4.249682e-02 -1.131223e-03  0.000000e+00
     vertex  3.685853e-02 -1.832006e-03  0.000000e+00
   endloop
 endfacet
 facet normal  0.000000e+00 -0.000000e+00 -1.000000e+00
   outer loop
     vertex  4.341192e-02  1.013821e-03  0.000000e+00
     vertex  4.455791e-02 -8.669497e-04  0.000000e+00
     vertex  4.249682e-02 -1.131223e-03  0.000000e+00
   endloop
 endfacet
 facet normal -0.000000e+00  0.000000e+00 -1.000000e+00
   outer loop
     vertex  4.341192e-02  1.013821e-03  0.000000e+00
     vertex  4.249682e-02 -1.131223e-03  0.000000e+00
     vertex  4.079272e-02  1.349160e-03  0.000000e+00
   endloop
 endfacet
 facet normal  0.000000e+00 -0.000000e+00 -1.000000e+00
   outer loop
     vertex  4.693208e-02  5.544646e-04  0.000000e+00
     vertex  4.756593e-02 -4.597629e-04  0.000000e+00
     vertex  4.455791e-02 -8.669497e-04  0.000000e+00
   endloop
 endfacet
 facet normal -0.000000e+00  0.000000e+00 -1.000000e+00
   outer loop
     vertex  4.693208e-02  5.544646e-04  0.000000e+00
     vertex  4.455791e-02 -8.669497e-04  0.000000e+00
     vertex  4.341192e-02  1.013821e-03  0.000000e+00
   endloop
 endfacet
 facet normal  0.000000e+00 -0.000000e+00 -1.000000e+00
   outer loop
     vertex  4.796040e-02  3.998489e-04  0.000000e+00
     vertex  4.832668e-02 -3.569481e-04  0.000000e+00
     vertex  4.756593e-02 -4.597629e-04  0.000000e+00
   endloop
 endfacet
 facet normal -0.000000e+00  0.000000e+00 -1.000000e+00
   outer loop
     vertex  4.796040e-02  3.998489e-04  0.000000e+00
     vertex  4.756593e-02 -4.597629e-04  0.000000e+00
     vertex  4.693208e-02  5.544646e-04  0.000000e+00
   endloop
 endfacet
 facet normal  0.000000e+00 -0.000000e+00 -1.000000e+00
   outer loop
     vertex  4.876932e-02  3.085924e-04  0.000000e+00
     vertex  4.895429e-02 -2.786351e-04  0.000000e+00
     vertex  4.832668e-02 -3.569481e-04  0.000000e+00
   endloop
 endfacet
 facet normal -0.000000e+00  0.000000e+00 -1.000000e+00
   outer loop
     vertex  4.876932e-02  3.085924e-04  0.000000e+00
     vertex  4.832668e-02 -3.569481e-04  0.000000e+00
     vertex  4.796040e-02  3.998489e-04  0.000000e+00
   endloop
 endfacet
 facet normal  0.000000e+00 -0.000000e+00 -1.000000e+00
   outer loop
     vertex  4.937357e-02  2.016896e-04  0.000000e+00
     vertex  4.944227e-02 -1.939174e-04  0.000000e+00
     vertex  4.895429e-02 -2.786351e-04  0.000000e+00
   endloop
 endfacet
 facet normal  0.000000e+00  0.000000e+00 -1.000000e+00
   outer loop
     vertex  4.937357e-02  2.016896e-04  0.000000e+00
     vertex  4.969218e-02 -1.774204e-04  0.000000e+00
     vertex  4.944227e-02 -1.939174e-04  0.000000e+00
   endloop
 endfacet
 facet normal -0.000000e+00  0.000000e+00 -1.000000e+00
   outer loop
     vertex  4.937357e-02  2.016896e-04  0.000000e+00
     vertex  4.895429e-02 -2.786351e-04  0.000000e+00
     vertex  4.876932e-02  3.085924e-04  0.000000e+00
   endloop
 endfacet
 facet normal  0.000000e+00 -0.000000e+00 -1.000000e+00
   outer loop
     vertex  4.983896e-02  1.572573e-04  0.000000e+00
     vertex  4.986129e-02 -1.516256e-04  0.000000e+00
     vertex  4.969218e-02 -1.774204e-04  0.000000e+00
   endloop
 endfacet
 facet normal -0.000000e+00  0.000000e+00 -1.000000e+00
   outer loop
     vertex  4.983896e-02  1.572573e-04  0.000000e+00
     vertex  4.969218e-02 -1.774204e-04  0.000000e+00
     vertex  4.937357e-02  2.016896e-04  0.000000e+00
   endloop
 endfacet
 facet normal  0.000000e+00 -0.000000e+00 -1.000000e+00
   outer loop
     vertex  4.991555e-02  1.335342e-04  0.000000e+00
     vertex  4.995535e-02 -1.154357e-04  0.000000e+00
     vertex  4.986129e-02 -1.516256e-04  0.000000e+00
   endloop
 endfacet
 facet normal -0.000000e+00  0.000000e+00 -1.000000e+00
   outer loop
     vertex  4.991555e-02  1.335342e-04  0.000000e+00
     vertex  4.986129e-02 -1.516256e-04  0.000000e+00
     vertex  4.983896e-02  1.572573e-04  0.000000e+00
   endloop
 endfacet
 facet normal  0.000000e+00 -0.000000e+00 -1.000000e+00
   outer loop
     vertex  5.001298e-02  8.009298e-05  0.000000e+00
     vertex  5.003106e-02 -6.638648e-05  0.000000e+00
     vertex  4.995535e-02 -1.154357e-04  0.000000e+00
   endloop
 endfacet
 facet normal -0.000000e+00  0.000000e+00 -1.000000e+00
   outer loop
     vertex  5.001298e-02  8.009298e-05  0.000000e+00
     vertex  4.995535e-02 -1.154357e-04  0.000000e+00
     vertex  4.991555e-02  1.335342e-04  0.000000e+00
   endloop
 endfacet
 facet normal -0.000000e+00  0.000000e+00 -1.000000e+00
   outer loop
     vertex  5.010000e-02  0.000000e+00  0.000000e+00
     vertex  5.003106e-02 -6.638648e-05  0.000000e+00
     vertex  5.001298e-02  8.009298e-05  0.000000e+00
   endloop
 endfacet
 facet normal  0.000000e+00  0.000000e+00  1.000000e+00
   outer loop
     vertex -4.998124e-02  2.366819e-04  3.000000e-01
     vertex -5.000000e-02  0.000000e+00  3.000000e-01
     vertex -4.997257e-02 -2.885711e-04  3.000000e-01
   endloop
 endfacet
 facet normal  0.000000e+00  0.000000e+00  1.000000e+00
   outer loop
     vertex -4.993026e-02  4.642446e-04  3.000000e-01
     vertex -4.997257e-02 -2.885711e-04  3.000000e-01
     vertex -4.989720e-02 -5.633609e-04  3.000000e-01
   endloop
 endfacet
 facet normal  0.000000e+00  0.000000e+00  1.000000e+00
   outer loop
     vertex -4.993026e-02  4.642446e-04  3.000000e-01
     vertex -4.998124e-02  2.366819e-04  3.000000e-01
     vertex -4.997257e-02 -2.885711e-04  3.000000e-01
   endloop
 endfacet
 facet normal  0.000000e+00  0.000000e+00  1.000000e+00
   outer loop
     vertex -4.981646e-02  7.495919e-04  3.000000e-01
     vertex -4.989720e-02 -5.633609e-04  3.000000e-01
     vertex -4.975883e-02 -8.566873e-04  3.000000e-01
   endloop
 endfacet
 facet normal  0.000000e+00  0.000000e+00  1.000000e+00
   outer loop
     vertex -4.981646e-02  7.495919e-04  3.000000e-01
     vertex -4.993026e-02  4.642446e-04  3.000000e-01
     vertex -4.989720e-02 -5.633609e-04  3.000000e-01
   endloop
 endfacet
 facet normal  0.000000e+00  0.000000e+00  1.000000e+00
   outer loop
     vertex -4.963411e-02  1.049591e-03  3.000000e-01
     vertex -4.975883e-02 -8.566873e-04  3.000000e-01
     vertex -4.955593e-02 -1.153151e-03  3.000000e-01
   endloop
 endfacet
 facet normal  0.000000e+00  0.000000e+00  1.000000e+00
   outer loop
     vertex -4.963411e-02  1.049591e-03  3.000000e-01
     vertex -4.981646e-02  7.495919e-04  3.000000e-01
     vertex -4.975883e-02 -8.566873e-04  3.000000e-01
   endloop
 endfacet
 facet normal  0.000000e+00  0.000000e+00  1.000000e+00
   outer loop
     vertex -4.937564e-02  1.359876e-03  3.000000e-01
     vertex -4.955593e-02 -1.153151e-03  3.000000e-01
     vertex -4.928152e-02 -1.454893e-03  3.000000e-01
   endloop
 endfacet
 facet normal  0.000000e+00  0.000000e+00  1.000000e+00
   outer loop
     vertex -4.937564e-02  1.359876e-03  3.000000e-01
     vertex -4.963411e-02  1.049591e-03  3.000000e-01
     vertex -4.955593e-02 -1.153151e-03  3.000000e-01
   endloop
 endfacet
 facet normal  0.000000e+00  0.000000e+00  1.000000e+00
   outer loop
     vertex -4.902824e-02  1.680493e-03  3.000000e-01
     vertex -4.928152e-02 -1.454893e-03  3.000000e-01
     vertex -4.892874e-02 -1.759954e-03  3.000000e-01
   endloop
 endfacet
 facet normal  0.000000e+00  0.000000e+00  1.000000e+00
   outer loop
     vertex -4.902824e-02  1.680493e-03  3.000000e-01
     vertex -4.937564e-02  1.359876e-03  3.000000e-01
     vertex -4.928152e-02 -1.454893e-03  3.000000e-01
   endloop
 endfacet
 facet normal  0.000000e+00  0.000000e+00  1.000000e+00
   outer loop
     vertex -4.856761e-02  2.018060e-03  3.000000e-01
     vertex -4.892874e-02 -1.759954e-03  3.000000e-01
     vertex -4.847856e-02 -2.075934e-03  3.000000e-01
   endloop
 endfacet
 facet normal  0.000000e+00  0.000000e+00  1.000000e+00
   outer loop
     vertex -4.856761e-02  2.018060e-03  3.000000e-01
     vertex -4.902824e-02  1.680493e-03  3.000000e-01
     vertex -4.892874e-02 -1.759954e-03  3.000000e-01
   endloop
 endfacet
 facet normal  0.000000e+00  0.000000e+00  1.000000e+00
   outer loop
     vertex -4.798517e-02  2.366678e-03  3.000000e-01
     vertex -4.847856e-02 -2.075934e-03  3.000000e-01
     vertex -4.791046e-02 -2.407017e-03  3.000000e-01
   endloop
 endfacet
 facet normal  0.000000e+00  0.000000e+00  1.000000e+00
   outer loop
     vertex -4.798517e-02  2.366678e-03  3.000000e-01
     vertex -4.856761e-02  2.018060e-03  3.000000e-01
     vertex -4.847856e-02 -2.075934e-03  3.000000e-01
   endloop
 endfacet
 facet normal  0.000000e+00  0.000000e+00  1.000000e+00
   outer loop
     vertex -4.729003e-02  2.712753e-03  3.000000e-01
     vertex -4.791046e-02 -2.407017e-03  3.000000e-01
     vertex -4.733887e-02 -2.690375e-03  3.000000e-01
   endloop
 endfacet
 facet normal  0.000000e+00  0.000000e+00  1.000000e+00
   outer loop
     vertex -4.729003e-02  2.712753e-03  3.000000e-01
     vertex -4.733887e-02 -2.690375e-03  3.000000e-01
     vertex -4.655436e-02 -3.022045e-03  3.000000e-01
   endloop
 endfacet
 facet normal  0.000000e+00  0.000000e+00  1.000000e+00
   outer loop
     vertex -4.729003e-02  2.712753e-03  3.000000e-01
     vertex -4.798517e-02  2.366678e-03  3.000000e-01
     vertex -4.791046e-02 -2.407017e-03  3.000000e-01
   endloop
 endfacet
 facet normal  0.000000e+00  0.000000e+00  1.000000e+00
   outer loop
     vertex -4.643323e-02  3.068688e-03  3.000000e-01
     vertex -4.729003e-02  2.712753e-03  3.000000e-01
     vertex -4.655436e-02 -3.022045e-03  3.000000e-01
   endloop
 endfacet
 facet normal  0.000000e+00  0.000000e+00  1.000000e+00
   outer loop
     vertex -4.643323e-02  3.068688e-03  3.000000e-01
     vertex -4.655436e-02 -3.022045e-03  3.000000e-01
     vertex -4.560872e-02 -3.361534e-03  3.000000e-01
   endloop
 endfacet
 facet normal  0.000000e+00  0.000000e+00  1.000000e+00
   outer loop
     vertex -4.541418e-02  3.425192e-03  3.000000e-01
     vertex -4.560872e-02 -3.361534e-03  3.000000e-01
     vertex -4.448495e-02 -3.705302e-03  3.000000e-01
   endloop
 endfacet
 facet normal  0.000000e+00  0.000000e+00  1.000000e+00
   outer loop
     vertex -4.541418e-02  3.425192e-03  3.000000e-01
     vertex -4.643323e-02  3.068688e-03  3.000000e-01
     vertex -4.560872e-02 -3.361534e-03  3.000000e-01
   endloop
 endfacet
 facet normal  0.000000e+00  0.000000e+00  1.000000e+00
   outer loop
     vertex -4.424159e-02  3.772797e-03  3.000000e-01
     vertex -4.448495e-02 -3.705302e-03  3.000000e-01
     vertex -4.320646e-02 -4.037315e-03  3.000000e-01
   endloop
 endfacet
 facet normal  0.000000e+00  0.000000e+00  1.000000e+00
   outer loop
     vertex -4.424159e-02  3.772797e-03  3.000000e-01
     vertex -4.541418e-02  3.425192e-03  3.000000e-01
     vertex -4.448495e-02 -3.705302e-03  3.000000e-01
   endloop
 endfacet
 facet normal  0.000000e+00  0.000000e+00  1.000000e+00
   outer loop
     vertex -4.287619e-02  4.114947e-03  3.000000e-01
     vertex -4.320646e-02 -4.037315e-03  3.000000e-01
     vertex -4.172167e-02 -4.364458e-03  3.000000e-01
   endloop
 endfacet
 facet normal  0.000000e+00  0.000000e+00  1.000000e+00
   outer loop
     vertex -4.287619e-02  4.114947e-03  3.000000e-01
     vertex -4.424159e-02  3.772797e-03  3.000000e-01
     vertex -4.320646e-02 -4.037315e-03  3.000000e-01
   endloop
 endfacet
 facet normal  0.000000e+00  0.000000e+00  1.000000e+00
   outer loop
     vertex -4.134304e-02  4.439566e-03  3.000000e-01
     vertex -4.172167e-02 -4.364458e-03  3.000000e-01
     vertex -4.005363e-02 -4.673694e-03  3.000000e-01
   endloop
 endfacet
 facet normal  0.000000e+00  0.000000e+00  1.000000e+00
   outer loop
     vertex -4.134304e-02  4.439566e-03  3.000000e-01
     vertex -4.287619e-02  4.114947e-03  3.000000e-01
     vertex -4.172167e-02 -4.364458e-03  3.000000e-01
   endloop
 endfacet
 facet normal  0.000000e+00  0.000000e+00  1.000000e+00
   outer loop
     vertex -3.961387e-02  4.746636e-03  3.000000e-01
     vertex -4.005363e-02 -4.673694e-03  3.000000e-01
     vertex -3.817554e-02 -4.963769e-03  3.000000e-01
   endloop
 endfacet
 facet normal  0.000000e+00  0.000000e+00  1.000000e+00
   outer loop
     vertex -3.961387e-02  4.746636e-03  3.000000e-01
     vertex -4.134304e-02  4.439566e-03  3.000000e-01
     vertex -4.005363e-02 -4.673694e-03  3.000000e-01
   endloop
 endfacet
 facet normal  0.000000e+00  0.000000e+00  1.000000e+00
   outer loop
     vertex -3.770167e-02  5.028704e-03  3.000000e-01
     vertex -3.817554e-02 -4.963769e-03  3.000000e-01
     vertex -3.609190e-02 -5.227567e-03  3.000000e-01
   endloop
 endfacet
 facet normal  0.000000e+00  0.000000e+00  1.000000e+00
   outer loop
     vertex -3.770167e-02  5.028704e-03  3.000000e-01
     vertex -3.961387e-02  4.746636e-03  3.000000e-01
     vertex -3.817554e-02 -4.963769e-03  3.000000e-01
   endloop
 endfacet
 facet normal  0.000000e+00  0.000000e+00  1.000000e+00
   outer loop
     vertex -3.559351e-02  5.282866e-03  3.000000e-01
     vertex -3.609190e-02 -5.227567e-03  3.000000e-01
     vertex -3.379303e-02 -5.460589e-03  3.000000e-01
   endloop
 endfacet
 facet normal  0.000000e+00  0.000000e+00  1.000000e+00
   outer loop
     vertex -3.559351e-02  5.282866e-03  3.000000e-01
     vertex -3.770167e-02  5.028704e-03  3.000000e-01
     vertex -3.609190e-02 -5.227567e-03  3.000000e-01
   endloop
 endfacet
 facet normal  0.000000e+00  0.000000e+00  1.000000e+00
   outer loop
     vertex -3.332637e-02  5.501407e-03  3.000000e-01
     vertex -3.379303e-02 -5.460589e-03  3.000000e-01
     vertex -3.148959e-02 -5.643073e-03  3.000000e-01
   endloop
 endfacet
 facet normal  0.000000e+00  0.000000e+00  1.000000e+00
   outer loop
     vertex -3.332637e-02  5.501407e-03  3.000000e-01
     vertex -3.559351e-02  5.282866e-03  3.000000e-01
     vertex -3.379303e-02 -5.460589e-03  3.000000e-01
   endloop
 endfacet
 facet normal  0.000000e+00  0.000000e+00  1.000000e+00
   outer loop
     vertex -3.080260e-02  5.688790e-03  3.000000e-01
     vertex -3.148959e-02 -5.643073e-03  3.000000e-01
     vertex -2.918313e-02 -5.782234e-03  3.000000e-01
   endloop
 endfacet
 facet normal  0.000000e+00  0.000000e+00  1.000000e+00
   outer loop
     vertex -3.080260e-02  5.688790e-03  3.000000e-01
     vertex -3.332637e-02  5.501407e-03  3.000000e-01
     vertex -3.148959e-02 -5.643073e-03  3.000000e-01
   endloop
 endfacet
 facet normal  0.000000e+00  0.000000e+00  1.000000e+00
   outer loop
     vertex -2.799470e-02  5.838856e-03  3.000000e-01
     vertex -2.918313e-02 -5.782234e-03  3.000000e-01
     vertex -2.687470e-02 -5.883623e-03  3.000000e-01
   endloop
 endfacet
 facet normal  0.000000e+00  0.000000e+00  1.000000e+00
   outer loop
     vertex -2.799470e-02  5.838856e-03  3.000000e-01
     vertex -3.080260e-02  5.688790e-03  3.000000e-01
     vertex -2.918313e-02 -5.782234e-03  3.000000e-01
   endloop
 endfacet
 facet normal  0.000000e+00  0.000000e+00  1.000000e+00
   outer loop
     vertex -2.487215e-02  5.944426e-03  3.000000e-01
     vertex -2.687470e-02 -5.883623e-03  3.000000e-01
     vertex -2.379498e-02 -5.967618e-03  3.000000e-01
   endloop
 endfacet
 facet normal  0.000000e+00  0.000000e+00  1.000000e+00
   outer loop
     vertex -2.487215e-02  5.944426e-03  3.000000e-01
     vertex -2.799470e-02  5.838856e-03  3.000000e-01
     vertex -2.687470e-02 -5.883623e-03  3.000000e-01
   endloop
 endfacet
 facet normal  0.000000e+00  0.000000e+00  1.000000e+00
   outer loop
     vertex -2.174822e-02  5.994771e-03  3.000000e-01
     vertex -2.379498e-02 -5.967618e-03  3.000000e-01
     vertex -2.071430e-02 -6.000611e-03  3.000000e-01
   endloop
 endfacet
 facet normal  0.000000e+00  0.000000e+00  1.000000e+00
   outer loop
     vertex -2.174822e-02  5.994771e-03  3.000000e-01
     vertex -2.487215e-02  5.944426e-03  3.000000e-01
     vertex -2.379498e-02 -5.967618e-03  3.000000e-01
   endloop
 endfacet
 facet normal  0.000000e+00  0.000000e+00  1.000000e+00
   outer loop
     vertex -1.827673e-02  5.995095e-03  3.000000e-01
     vertex -2.071430e-02 -6.000611e-03  3.000000e-01
     vertex -1.763345e-02 -5.989330e-03  3.000000e-01
   endloop
 endfacet
 facet normal  0.000000e+00  0.000000e+00  1.000000e+00
   outer loop
     vertex -1.827673e-02  5.995095e-03  3.000000e-01
     vertex -2.174822e-02  5.994771e-03  3.000000e-01
     vertex -2.071430e-02 -6.000611e-03  3.000000e-01
   endloop
 endfacet
 facet normal  0.000000e+00  0.000000e+00  1.000000e+00
   outer loop
     vertex -1.441999e-02  5.936095e-03  3.000000e-01
     vertex -1.763345e-02 -5.989330e-03  3.000000e-01
     vertex -1.455300e-02 -5.939046e-03  3.000000e-01
   endloop
 endfacet
 facet normal  0.000000e+00  0.000000e+00  1.000000e+00
   outer loop
     vertex -1.441999e-02  5.936095e-03  3.000000e-01
     vertex -1.455300e-02 -5.939046e-03  3.000000e-01
     vertex -1.147328e-02 -5.854654e-03  3.000000e-01
   endloop
 endfacet
 facet normal  0.000000e+00  0.000000e+00  1.000000e+00
   outer loop
     vertex -1.441999e-02  5.936095e-03  3.000000e-01
     vertex -1.827673e-02  5.995095e-03  3.000000e-01
     vertex -1.763345e-02 -5.989330e-03  3.000000e-01
   endloop
 endfacet
 facet normal  0.000000e+00  0.000000e+00  1.000000e+00
   outer loop
     vertex -1.056444e-02  5.823258e-03  3.000000e-01
     vertex -1.441999e-02  5.936095e-03  3.000000e-01
     vertex -1.147328e-02 -5.854654e-03  3.000000e-01
   endloop
 endfacet
 facet normal  0.000000e+00  0.000000e+00  1.000000e+00
   outer loop
     vertex -1.056444e-02  5.823258e-03  3.000000e-01
     vertex -1.147328e-02 -5.854654e-03  3.000000e-01
     vertex -7.368533e-03 -5.695478e-03  3.000000e-01
   endloop
 endfacet
 facet normal  0.000000e+00  0.000000e+00  1.000000e+00
   outer loop
     vertex -5.911090e-03  5.628077e-03  3.000000e-01
     vertex -1.056444e-02  5.823258e-03  3.000000e-01
     vertex -7.368533e-03 -5.695478e-03  3.000000e-01
   endloop
 endfacet
 facet normal  0.000000e+00  0.000000e+00  1.000000e+00
   outer loop
     vertex -5.911090e-03  5.628077e-03  3.000000e-01
     vertex -7.368533e-03 -5.695478e-03  3.000000e-01
     vertex -3.676344e-03 -5.507372e-03  3.000000e-01
   endloop
 endfacet
 facet normal  0.000000e+00  0.000000e+00  1.000000e+00
   outer loop
     vertex  1.207070e-03  5.242339e-03  3.000000e-01
     vertex -5.911090e-03  5.628077e-03  3.000000e-01
     vertex -3.676344e-03 -5.507372e-03  3.000000e-01
   endloop
 endfacet
 facet normal  0.000000e+00  0.000000e+00  1.000000e+00
   outer loop
     vertex  1.207070e-03  5.242339e-03  3.000000e-01
     vertex -3.676344e-03 -5.507372e-03  3.000000e-01
     vertex  1.153186e-03 -5.245637e-03  3.000000e-01
   endloop
 endfacet
 facet normal  0.000000e+00  0.000000e+00  1.000000e+00
   outer loop
     vertex  1.207070e-03  5.242339e-03  3.000000e-01
     vertex  1.153186e-03 -5.245637e-03  3.000000e-01
     vertex  3.636326e-03 -5.062936e-03  3.000000e-01
   endloop
 endfacet
 facet normal  0.000000e+00  0.000000e+00  1.000000e+00
   outer loop
     vertex  3.691474e-03  5.058379e-03  3.000000e-01
     vertex  1.207070e-03  5.242339e-03  3.000000e-01
     vertex  3.636326e-03 -5.062936e-03  3.000000e-01
   endloop
 endfacet
 facet normal  0.000000e+00  0.000000e+00  1.000000e+00
   outer loop
     vertex  3.691474e-03  5.058379e-03  3.000000e-01
     vertex  3.636326e-03 -5.062936e-03  3.000000e-01
     vertex  6.822641e-03 -4.811934e-03  3.000000e-01
   endloop
 endfacet
 facet normal  0.000000e+00  0.000000e+00  1.000000e+00
   outer loop
     vertex  8.659324e-03  4.673530e-03  3.000000e-01
     vertex  3.691474e-03  5.058379e-03  3.000000e-01
     vertex  6.822641e-03 -4.811934e-03  3.000000e-01
   endloop
 endfacet
 facet normal  0.000000e+00  0.000000e+00  1.000000e+00
   outer loop
     vertex  8.659324e-03  4.673530e-03  3.000000e-01
     vertex  6.822641e-03 -4.811934e-03  3.000000e-01
     vertex  1.000911e-02 -4.564136e-03  3.000000e-01
   endloop
 endfacet
 facet normal  0.000000e+00  0.000000e+00  1.000000e+00
   outer loop
     vertex  1.417591e-02  4.206177e-03  3.000000e-01
     vertex  8.659324e-03  4.673530e-03  3.000000e-01
     vertex  1.000911e-02 -4.564136e-03  3.000000e-01
   endloop
 endfacet
 facet normal  0.000000e+00  0.000000e+00  1.000000e+00
   outer loop
     vertex  1.417591e-02  4.206177e-03  3.000000e-01
     vertex  1.000911e-02 -4.564136e-03  3.000000e-01
     vertex  1.509031e-02 -4.124665e-03  3.000000e-01
   endloop
 endfacet
 facet normal  0.000000e+00  0.000000e+00  1.000000e+00
   outer loop
     vertex  1.968851e-02  3.694087e-03  3.000000e-01
     vertex  1.417591e-02  4.206177e-03  3.000000e-01
     vertex  1.509031e-02 -4.124665e-03  3.000000e-01
   endloop
 endfacet
 facet normal  0.000000e+00  0.000000e+00  1.000000e+00
   outer loop
     vertex  1.968851e-02  3.694087e-03  3.000000e-01
     vertex  1.509031e-02 -4.124665e-03  3.000000e-01
     vertex  1.991248e-02 -3.672384e-03  3.000000e-01
   endloop
 endfacet
 facet normal  0.000000e+00  0.000000e+00  1.000000e+00
   outer loop
     vertex  2.519702e-02  3.139751e-03  3.000000e-01
     vertex  1.968851e-02  3.694087e-03  3.000000e-01
     vertex  1.991248e-02 -3.672384e-03  3.000000e-01
   endloop
 endfacet
 facet normal  0.000000e+00  0.000000e+00  1.000000e+00
   outer loop
     vertex  2.519702e-02  3.139751e-03  3.000000e-01
     vertex  1.991248e-02 -3.672384e-03  3.000000e-01
     vertex  2.556568e-02 -3.101191e-03  3.000000e-01
   endloop
 endfacet
 facet normal  0.000000e+00  0.000000e+00  1.000000e+00
   outer loop
     vertex  3.070132e-02  2.545093e-03  3.000000e-01
     vertex  2.519702e-02  3.139751e-03  3.000000e-01
     vertex  2.556568e-02 -3.101191e-03  3.000000e-01
   endloop
 endfacet
 facet normal  0.000000e+00  0.000000e+00  1.000000e+00
   outer loop
     vertex  3.070132e-02  2.545093e-03  3.000000e-01
     vertex  2.556568e-02 -3.101191e-03  3.000000e-01
     vertex  3.121445e-02 -2.487623e-03  3.000000e-01
   endloop
 endfacet
 facet normal  0.000000e+00  0.000000e+00  1.000000e+00
   outer loop
     vertex  3.715865e-02  1.795930e-03  3.000000e-01
     vertex  3.070132e-02  2.545093e-03  3.000000e-01
     vertex  3.121445e-02 -2.487623e-03  3.000000e-01
   endloop
 endfacet
 facet normal  0.000000e+00  0.000000e+00  1.000000e+00
   outer loop
     vertex  3.715865e-02  1.795930e-03  3.000000e-01
     vertex  3.121445e-02 -2.487623e-03  3.000000e-01
     vertex  3.685853e-02 -1.832006e-03  3.000000e-01
   endloop
 endfacet
 facet normal  0.000000e+00  0.000000e+00  1.000000e+00
   outer loop
     vertex  4.079272e-02  1.349160e-03  3.000000e-01
     vertex  3.715865e-02  1.795930e-03  3.000000e-01
     vertex  3.685853e-02 -1.832006e-03  3.000000e-01
   endloop
 endfacet
 facet normal  0.000000e+00  0.000000e+00  1.000000e+00
   outer loop
     vertex  4.079272e-02  1.349160e-03  3.000000e-01
     vertex  3.685853e-02 -1.832006e-03  3.000000e-01
     vertex  4.249682e-02 -1.131223e-03  3.000000e-01
   endloop
 endfacet
 facet normal  0.000000e+00  0.000000e+00  1.000000e+00
   outer loop
     vertex  4.341192e-02  1.013821e-03  3.000000e-01
     vertex  4.249682e-02 -1.131223e-03  3.000000e-01
     vertex  4.455791e-02 -8.669497e-04  3.000000e-01
   endloop
 endfacet
 facet normal  0.000000e+00  0.000000e+00  1.000000e+00
   outer loop
     vertex  4.341192e-02  1.013821e-03  3.000000e-01
     vertex  4.079272e-02  1.349160e-03  3.000000e-01
     vertex  4.249682e-02 -1.131223e-03  3.000000e-01
   endloop
 endfacet
 facet normal  0.000000e+00  0.000000e+00  1.000000e+00
   outer loop
     vertex  4.693208e-02  5.544646e-04  3.000000e-01
     vertex  4.455791e-02 -8.669497e-04  3.000000e-01
     vertex  4.756593e-02 -4.597629e-04  3.000000e-01
   endloop
 endfacet
 facet normal  0.000000e+00  0.000000e+00  1.000000e+00
   outer loop
     vertex  4.693208e-02  5.544646e-04  3.000000e-01
     vertex  4.341192e-02  1.013821e-03  3.000000e-01
     vertex  4.455791e-02 -8.669497e-04  3.000000e-01
   endloop
 endfacet
 facet normal  0.000000e+00  0.000000e+00  1.000000e+00
   outer loop
     vertex  4.796040e-02  3.998489e-04  3.000000e-01
     vertex  4.756593e-02 -4.597629e-04  3.000000e-01
     vertex  4.832668e-02 -3.569481e-04  3.000000e-01
   endloop
 endfacet
 facet normal  0.000000e+00  0.000000e+00  1.000000e+00
   outer loop
     vertex  4.796040e-02  3.998489e-04  3.000000e-01
     vertex  4.693208e-02  5.544646e-04  3.000000e-01
     vertex  4.756593e-02 -4.597629e-04  3.000000e-01
   endloop
 endfacet
 facet normal  0.000000e+00  0.000000e+00  1.000000e+00
   outer loop
     vertex  4.876932e-02  3.085924e-04  3.000000e-01
     vertex  4.832668e-02 -3.569481e-04  3.000000e-01
     vertex  4.895429e-02 -2.786351e-04  3.000000e-01
   endloop
 endfacet
 facet normal  0.000000e+00  0.000000e+00  1.000000e+00
   outer loop
     vertex  4.876932e-02  3.085924e-04  3.000000e-01
     vertex  4.796040e-02  3.998489e-04  3.000000e-01
     vertex  4.832668e-02 -3.569481e-04  3.000000e-01
   endloop
 endfacet
 facet normal  0.000000e+00  0.000000e+00  1.000000e+00
   outer loop
     vertex  4.937357e-02  2.016896e-04  3.000000e-01
     vertex  4.895429e-02 -2.786351e-04  3.000000e-01
     vertex  4.944227e-02 -1.939174e-04  3.000000e-01
   endloop
 endfacet
 facet normal  0.000000e+00  0.000000e+00  1.000000e+00
   outer loop
     vertex  4.937357e-02  2.016896e-04  3.000000e-01
     vertex  4.944227e-02 -1.939174e-04  3.000000e-01
     vertex  4.969218e-02 -1.774204e-04  3.000000e-01
   endloop
 endfacet
 facet normal  0.000000e+00  0.000000e+00  1.000000e+00
   outer loop
     vertex  4.937357e-02  2.016896e-04  3.000000e-01
     vertex  4.876932e-02  3.085924e-04  3.000000e-01
     vertex  4.895429e-02 -2.786351e-04  3.000000e-01
   endloop
 endfacet
 facet normal  0.000000e+00  0.000000e+00  1.000000e+00
   outer loop
     vertex  4.983896e-02  1.572573e-04  3.000000e-01
     vertex  4.969218e-02 -1.774204e-04  3.000000e-01
     vertex  4.986129e-02 -1.516256e-04  3.000000e-01
   endloop
 endfacet
 facet normal  0.000000e+00  0.000000e+00  1.000000e+00
   outer loop
     vertex  4.983896e-02  1.572573e-04  3.000000e-01
     vertex  4.937357e-02  2.016896e-04  3.000000e-01
     vertex  4.969218e-02 -1.774204e-04  3.000000e-01
   endloop
 endfacet
 facet normal  0.000000e+00  0.000000e+00  1.000000e+00
   outer loop
     vertex  4.991555e-02  1.335342e-04  3.000000e-01
     vertex  4.986129e-02 -1.516256e-04  3.000000e-01
     vertex  4.995535e-02 -1.154357e-04  3.000000e-01
   endloop
 endfacet
 facet normal  0.000000e+00  0.000000e+00  1.000000e+00
   outer loop
     vertex  4.991555e-02  1.335342e-04  3.000000e-01
     vertex  4.983896e-02  1.572573e-04  3.000000e-01
     vertex  4.986129e-02 -1.516256e-04  3.000000e-01
   endloop
 endfacet
 facet normal  0.000000e+00  0.000000e+00  1.000000e+00
   outer loop
     vertex  5.001298e-02  8.009298e-05  3.000000e-01
     vertex  4.995535e-02 -1.154357e-04  3.000000e-01
     vertex  5.003106e-02 -6.638648e-05  3.000000e-01
   endloop
 endfacet
 facet normal  0.000000e+00  0.000000e+00  1.000000e+00
   outer loop
     vertex  5.001298e-02  8.009298e-05  3.000000e-01
     vertex  4.991555e-02  1.335342e-04  3.000000e-01
     vertex  4.995535e-02 -1.154357e-04  3.000000e-01
   endloop
 endfacet
 facet normal  0.000000e+00  0.000000e+00  1.000000e+00
   outer loop
     vertex  5.010000e-02  0.000000e+00  3.000000e-01
     vertex  5.001298e-02  8.009298e-05  3.000000e-01
     vertex  5.003106e-02 -6.638648e-05  3.000000e-01
   endloop
 endfacet
endsolid
